EESchema Schematic File Version 2
LIBS:power
LIBS:device
LIBS:transistors
LIBS:conn
LIBS:linear
LIBS:regul
LIBS:74xx
LIBS:cmos4000
LIBS:adc-dac
LIBS:memory
LIBS:xilinx
LIBS:special
LIBS:microcontrollers
LIBS:dsp
LIBS:microchip
LIBS:analog_switches
LIBS:motorola
LIBS:texas
LIBS:intel
LIBS:audio
LIBS:interface
LIBS:digital-audio
LIBS:philips
LIBS:display
LIBS:cypress
LIBS:siliconi
LIBS:opto
LIBS:atmel
LIBS:contrib
LIBS:valves
EELAYER 27 0
EELAYER END
$Descr A4 11693 8268
encoding utf-8
Sheet 1 1
Title ""
Date "9 sep 2015"
Rev ""
Comp ""
Comment1 ""
Comment2 ""
Comment3 ""
Comment4 ""
$EndDescr
$Comp
L ATMEGA8-P IC?
U 1 1 55F03E2E
P 5050 3850
F 0 "IC?" H 4300 5150 40  0000 L BNN
F 1 "ATMEGA8-P" H 5550 2400 40  0000 L BNN
F 2 "DIL28" H 5050 3850 30  0000 C CIN
F 3 "" H 5050 3850 60  0000 C CNN
	1    5050 3850
	1    0    0    -1  
$EndComp
$Comp
L +5V #PWR?
U 1 1 55F03EE3
P 5050 2250
F 0 "#PWR?" H 5050 2340 20  0001 C CNN
F 1 "+5V" H 5050 2340 30  0000 C CNN
F 2 "" H 5050 2250 60  0000 C CNN
F 3 "" H 5050 2250 60  0000 C CNN
	1    5050 2250
	1    0    0    -1  
$EndComp
$Comp
L GND #PWR?
U 1 1 55F03EF9
P 5050 5500
F 0 "#PWR?" H 5050 5500 30  0001 C CNN
F 1 "GND" H 5050 5430 30  0001 C CNN
F 2 "" H 5050 5500 60  0000 C CNN
F 3 "" H 5050 5500 60  0000 C CNN
	1    5050 5500
	1    0    0    -1  
$EndComp
$Comp
L +5V #PWR?
U 1 1 55F03F11
P 4000 2250
F 0 "#PWR?" H 4000 2340 20  0001 C CNN
F 1 "+5V" H 4000 2340 30  0000 C CNN
F 2 "" H 4000 2250 60  0000 C CNN
F 3 "" H 4000 2250 60  0000 C CNN
	1    4000 2250
	1    0    0    -1  
$EndComp
$Comp
L GND #PWR?
U 1 1 55F03F23
P 4000 4400
F 0 "#PWR?" H 4000 4400 30  0001 C CNN
F 1 "GND" H 4000 4330 30  0001 C CNN
F 2 "" H 4000 4400 60  0000 C CNN
F 3 "" H 4000 4400 60  0000 C CNN
	1    4000 4400
	1    0    0    -1  
$EndComp
$Comp
L CP1 C?
U 1 1 55F03F71
P 2800 3100
F 0 "C?" H 2850 3200 50  0000 L CNN
F 1 "10uf" H 2850 3000 50  0000 L CNN
F 2 "~" H 2800 3100 60  0000 C CNN
F 3 "~" H 2800 3100 60  0000 C CNN
	1    2800 3100
	1    0    0    -1  
$EndComp
$Comp
L CRYSTAL X?
U 1 1 55F03F80
P 3350 3450
F 0 "X?" H 3350 3600 60  0000 C CNN
F 1 "12MHz" H 3350 3300 60  0000 C CNN
F 2 "~" H 3350 3450 60  0000 C CNN
F 3 "~" H 3350 3450 60  0000 C CNN
	1    3350 3450
	1    0    0    -1  
$EndComp
$Comp
L GND #PWR?
U 1 1 55F03FE0
P 3800 4400
F 0 "#PWR?" H 3800 4400 30  0001 C CNN
F 1 "GND" H 3800 4330 30  0001 C CNN
F 2 "" H 3800 4400 60  0000 C CNN
F 3 "" H 3800 4400 60  0000 C CNN
	1    3800 4400
	1    0    0    -1  
$EndComp
$Comp
L GND #PWR?
U 1 1 55F03FE6
P 3050 4400
F 0 "#PWR?" H 3050 4400 30  0001 C CNN
F 1 "GND" H 3050 4330 30  0001 C CNN
F 2 "" H 3050 4400 60  0000 C CNN
F 3 "" H 3050 4400 60  0000 C CNN
	1    3050 4400
	1    0    0    -1  
$EndComp
$Comp
L +5V #PWR?
U 1 1 55F0405F
P 3100 2250
F 0 "#PWR?" H 3100 2340 20  0001 C CNN
F 1 "+5V" H 3100 2340 30  0000 C CNN
F 2 "" H 3100 2250 60  0000 C CNN
F 3 "" H 3100 2250 60  0000 C CNN
	1    3100 2250
	1    0    0    -1  
$EndComp
$Comp
L C C?
U 1 1 55F0409A
P 2400 3100
F 0 "C?" H 2400 3200 40  0000 L CNN
F 1 "C" H 2406 3015 40  0000 L CNN
F 2 "~" H 2438 2950 30  0000 C CNN
F 3 "~" H 2400 3100 60  0000 C CNN
	1    2400 3100
	1    0    0    -1  
$EndComp
$Comp
L R R?
U 1 1 55F040A9
P 3500 2750
F 0 "R?" V 3580 2750 40  0000 C CNN
F 1 "10k" V 3507 2751 40  0000 C CNN
F 2 "~" V 3430 2750 30  0000 C CNN
F 3 "~" H 3500 2750 30  0000 C CNN
	1    3500 2750
	0    -1   -1   0   
$EndComp
$Comp
L CONN_6 P?
U 1 1 55F04164
P 6750 1950
F 0 "P?" V 6700 1950 60  0000 C CNN
F 1 "CONN_CONFIG" V 6800 1950 60  0000 C CNN
F 2 "" H 6750 1950 60  0000 C CNN
F 3 "" H 6750 1950 60  0000 C CNN
	1    6750 1950
	0    -1   -1   0   
$EndComp
$Comp
L C C?
U 1 1 55F04259
P 3800 4000
F 0 "C?" H 3800 4100 40  0000 L CNN
F 1 "18pf" H 3806 3915 40  0000 L CNN
F 2 "~" H 3838 3850 30  0000 C CNN
F 3 "~" H 3800 4000 60  0000 C CNN
	1    3800 4000
	1    0    0    -1  
$EndComp
$Comp
L C C?
U 1 1 55F0429A
P 3050 4000
F 0 "C?" H 3050 4100 40  0000 L CNN
F 1 "18pf" H 3056 3915 40  0000 L CNN
F 2 "~" H 3088 3850 30  0000 C CNN
F 3 "~" H 3050 4000 60  0000 C CNN
	1    3050 4000
	1    0    0    -1  
$EndComp
$Comp
L +5V #PWR?
U 1 1 55F04A2B
P 2600 2250
F 0 "#PWR?" H 2600 2340 20  0001 C CNN
F 1 "+5V" H 2600 2340 30  0000 C CNN
F 2 "" H 2600 2250 60  0000 C CNN
F 3 "" H 2600 2250 60  0000 C CNN
	1    2600 2250
	1    0    0    -1  
$EndComp
$Comp
L GND #PWR?
U 1 1 55F04A42
P 2600 4400
F 0 "#PWR?" H 2600 4400 30  0001 C CNN
F 1 "GND" H 2600 4330 30  0001 C CNN
F 2 "" H 2600 4400 60  0000 C CNN
F 3 "" H 2600 4400 60  0000 C CNN
	1    2600 4400
	1    0    0    -1  
$EndComp
Text Notes 6450 1550 0    60   ~ 0
1-2 Прошивка самого микроконтроллера\n3-4 Прошивка низкочастотных МК\n5-6 Подача питания на прошиваемый МК
$Comp
L LED D?
U 1 1 55F04B92
P 7400 2300
F 0 "D?" H 7400 2400 50  0000 C CNN
F 1 "LED Red" H 7400 2200 50  0000 C CNN
F 2 "~" H 7400 2300 60  0000 C CNN
F 3 "~" H 7400 2300 60  0000 C CNN
	1    7400 2300
	0    1    1    0   
$EndComp
$Comp
L LED D?
U 1 1 55F04BB4
P 7700 2300
F 0 "D?" H 7700 2400 50  0000 C CNN
F 1 "LED Green" H 7700 2200 50  0000 C CNN
F 2 "~" H 7700 2300 60  0000 C CNN
F 3 "~" H 7700 2300 60  0000 C CNN
	1    7700 2300
	0    1    1    0   
$EndComp
$Comp
L +5V #PWR?
U 1 1 55F04BC3
P 7400 1950
F 0 "#PWR?" H 7400 2040 20  0001 C CNN
F 1 "+5V" H 7400 2040 30  0000 C CNN
F 2 "" H 7400 1950 60  0000 C CNN
F 3 "" H 7400 1950 60  0000 C CNN
	1    7400 1950
	1    0    0    -1  
$EndComp
$Comp
L +5V #PWR?
U 1 1 55F04BC9
P 7700 1950
F 0 "#PWR?" H 7700 2040 20  0001 C CNN
F 1 "+5V" H 7700 2040 30  0000 C CNN
F 2 "" H 7700 1950 60  0000 C CNN
F 3 "" H 7700 1950 60  0000 C CNN
	1    7700 1950
	1    0    0    -1  
$EndComp
$Comp
L R R?
U 1 1 55F04C18
P 7400 2850
F 0 "R?" V 7480 2850 40  0000 C CNN
F 1 "390" V 7407 2851 40  0000 C CNN
F 2 "~" V 7330 2850 30  0000 C CNN
F 3 "~" H 7400 2850 30  0000 C CNN
	1    7400 2850
	-1   0    0    1   
$EndComp
$Comp
L R R?
U 1 1 55F04C23
P 7700 2850
F 0 "R?" V 7780 2850 40  0000 C CNN
F 1 "390" V 7707 2851 40  0000 C CNN
F 2 "~" V 7630 2850 30  0000 C CNN
F 3 "~" H 7700 2850 30  0000 C CNN
	1    7700 2850
	-1   0    0    1   
$EndComp
$Comp
L GND #PWR?
U 1 1 55F04CF2
P 6800 3800
F 0 "#PWR?" H 6800 3800 30  0001 C CNN
F 1 "GND" H 6800 3730 30  0001 C CNN
F 2 "" H 6800 3800 60  0000 C CNN
F 3 "" H 6800 3800 60  0000 C CNN
	1    6800 3800
	1    0    0    -1  
$EndComp
Text Notes 9500 4550 0    60   ~ 0
1 GND\n2 VCC\n3 RESET\n4 SCK\n5 MISO\n6 MOSI
$Comp
L ZENER D?
U 1 1 55F04F25
P 9500 3350
F 0 "D?" H 9500 3450 50  0000 C CNN
F 1 "ZENER 3.6v" H 9500 3250 40  0000 C CNN
F 2 "~" H 9500 3350 60  0000 C CNN
F 3 "~" H 9500 3350 60  0000 C CNN
	1    9500 3350
	0    -1   -1   0   
$EndComp
$Comp
L R R?
U 1 1 55F04F64
P 8700 2400
F 0 "R?" V 8780 2400 40  0000 C CNN
F 1 "1.5k" V 8707 2401 40  0000 C CNN
F 2 "~" V 8630 2400 30  0000 C CNN
F 3 "~" H 8700 2400 30  0000 C CNN
	1    8700 2400
	-1   0    0    1   
$EndComp
$Comp
L R R?
U 1 1 55F04F7D
P 9100 2850
F 0 "R?" V 9180 2850 40  0000 C CNN
F 1 "68" V 9107 2851 40  0000 C CNN
F 2 "~" V 9030 2850 30  0000 C CNN
F 3 "~" H 9100 2850 30  0000 C CNN
	1    9100 2850
	0    1    1    0   
$EndComp
$Comp
L CONN_4 P?
U 1 1 55F04F93
P 10250 2800
F 0 "P?" V 10200 2800 50  0000 C CNN
F 1 "CONN_USB" V 10300 2800 50  0000 C CNN
F 2 "" H 10250 2800 60  0000 C CNN
F 3 "" H 10250 2800 60  0000 C CNN
	1    10250 2800
	1    0    0    -1  
$EndComp
$Comp
L GND #PWR?
U 1 1 55F04FA0
P 9800 3850
F 0 "#PWR?" H 9800 3850 30  0001 C CNN
F 1 "GND" H 9800 3780 30  0001 C CNN
F 2 "" H 9800 3850 60  0000 C CNN
F 3 "" H 9800 3850 60  0000 C CNN
	1    9800 3850
	1    0    0    -1  
$EndComp
$Comp
L +5V #PWR?
U 1 1 55F04FE9
P 9800 2000
F 0 "#PWR?" H 9800 2090 20  0001 C CNN
F 1 "+5V" H 9800 2090 30  0000 C CNN
F 2 "" H 9800 2000 60  0000 C CNN
F 3 "" H 9800 2000 60  0000 C CNN
	1    9800 2000
	1    0    0    -1  
$EndComp
$Comp
L GND #PWR?
U 1 1 55F05070
P 9500 3850
F 0 "#PWR?" H 9500 3850 30  0001 C CNN
F 1 "GND" H 9500 3780 30  0001 C CNN
F 2 "" H 9500 3850 60  0000 C CNN
F 3 "" H 9500 3850 60  0000 C CNN
	1    9500 3850
	1    0    0    -1  
$EndComp
$Comp
L ZENER D?
U 1 1 55F050EC
P 8700 3350
F 0 "D?" H 8700 3450 50  0000 C CNN
F 1 "ZENER 3.6v" H 8700 3250 40  0000 C CNN
F 2 "~" H 8700 3350 60  0000 C CNN
F 3 "~" H 8700 3350 60  0000 C CNN
	1    8700 3350
	0    -1   -1   0   
$EndComp
$Comp
L GND #PWR?
U 1 1 55F050F2
P 8700 3850
F 0 "#PWR?" H 8700 3850 30  0001 C CNN
F 1 "GND" H 8700 3780 30  0001 C CNN
F 2 "" H 8700 3850 60  0000 C CNN
F 3 "" H 8700 3850 60  0000 C CNN
	1    8700 3850
	1    0    0    -1  
$EndComp
$Comp
L +5V #PWR?
U 1 1 55F051A7
P 8700 2000
F 0 "#PWR?" H 8700 2090 20  0001 C CNN
F 1 "+5V" H 8700 2090 30  0000 C CNN
F 2 "" H 8700 2000 60  0000 C CNN
F 3 "" H 8700 2000 60  0000 C CNN
	1    8700 2000
	1    0    0    -1  
$EndComp
$Comp
L R R?
U 1 1 55F051E6
P 8300 2750
F 0 "R?" V 8380 2750 40  0000 C CNN
F 1 "68" V 8307 2751 40  0000 C CNN
F 2 "~" V 8230 2750 30  0000 C CNN
F 3 "~" H 8300 2750 30  0000 C CNN
	1    8300 2750
	0    1    1    0   
$EndComp
Wire Wire Line
	5050 2250 5050 2450
Wire Wire Line
	5050 5350 5050 5500
Wire Wire Line
	4000 2250 4000 3050
Wire Wire Line
	4000 2950 4150 2950
Wire Wire Line
	4000 3050 4150 3050
Connection ~ 4000 2950
Wire Wire Line
	4150 2750 3750 2750
Wire Wire Line
	3100 2250 3100 2750
Wire Wire Line
	3100 2750 3250 2750
Wire Wire Line
	3050 3450 3050 3800
Wire Wire Line
	3050 4200 3050 4400
Wire Wire Line
	3800 4400 3800 4200
Wire Wire Line
	4150 3450 3650 3450
Wire Wire Line
	4150 3650 3050 3650
Connection ~ 3050 3650
Wire Wire Line
	3800 3800 3800 3450
Connection ~ 3800 3450
Wire Wire Line
	2400 3300 2400 3500
Wire Wire Line
	2400 3500 2800 3500
Wire Wire Line
	2800 3500 2800 3300
Wire Wire Line
	2400 2900 2400 2700
Wire Wire Line
	2400 2700 2800 2700
Wire Wire Line
	2800 2700 2800 2900
Wire Wire Line
	2600 2250 2600 2700
Connection ~ 2600 2700
Wire Wire Line
	2600 4400 2600 3500
Connection ~ 2600 3500
Wire Wire Line
	4150 3150 4000 3150
Wire Wire Line
	4000 3150 4000 4400
Wire Wire Line
	6500 2300 6500 2400
Wire Wire Line
	6500 2400 3900 2400
Wire Wire Line
	3900 2400 3900 2750
Connection ~ 3900 2750
Wire Wire Line
	6600 2300 6600 4700
Wire Wire Line
	6600 2950 6050 2950
Wire Wire Line
	7400 1950 7400 2100
Wire Wire Line
	7700 1950 7700 2100
Wire Wire Line
	7400 2500 7400 2600
Wire Wire Line
	7700 2500 7700 2600
Wire Wire Line
	7400 3100 7400 3450
Wire Wire Line
	7400 3450 6050 3450
Wire Wire Line
	6050 3550 7700 3550
Wire Wire Line
	7700 3550 7700 3100
Wire Wire Line
	6050 3650 6700 3650
Wire Wire Line
	6700 3650 6700 2300
Wire Wire Line
	6800 2300 6800 3800
Wire Wire Line
	9900 2950 9800 2950
Wire Wire Line
	9800 2950 9800 3850
Wire Wire Line
	9800 2000 9800 2650
Wire Wire Line
	9800 2650 9900 2650
Wire Wire Line
	9500 3550 9500 3850
Wire Wire Line
	9500 3150 9500 2850
Wire Wire Line
	9350 2850 9900 2850
Wire Wire Line
	8700 3550 8700 3850
Connection ~ 9500 2850
Wire Wire Line
	8700 2650 8700 3150
Wire Wire Line
	8700 2150 8700 2000
Wire Wire Line
	8550 2750 9900 2750
Connection ~ 8700 2750
Wire Wire Line
	6050 2750 8050 2750
Wire Wire Line
	6050 2850 8850 2850
Wire Wire Line
	6050 4350 7900 4350
Wire Wire Line
	7900 4350 7900 2850
Connection ~ 7900 2850
$Comp
L CONN_6 P?
U 1 1 55F053D1
P 9300 4750
F 0 "P?" V 9250 4750 60  0000 C CNN
F 1 "CONN_PROG" V 9350 4750 60  0000 C CNN
F 2 "" H 9300 4750 60  0000 C CNN
F 3 "" H 9300 4750 60  0000 C CNN
	1    9300 4750
	1    0    0    -1  
$EndComp
$Comp
L GND #PWR?
U 1 1 55F053DC
P 8800 5250
F 0 "#PWR?" H 8800 5250 30  0001 C CNN
F 1 "GND" H 8800 5180 30  0001 C CNN
F 2 "" H 8800 5250 60  0000 C CNN
F 3 "" H 8800 5250 60  0000 C CNN
	1    8800 5250
	1    0    0    -1  
$EndComp
Wire Wire Line
	8800 5250 8800 4500
Wire Wire Line
	8800 4500 8950 4500
$Comp
L +5V #PWR?
U 1 1 55F05423
P 7200 1950
F 0 "#PWR?" H 7200 2040 20  0001 C CNN
F 1 "+5V" H 7200 2040 30  0000 C CNN
F 2 "" H 7200 1950 60  0000 C CNN
F 3 "" H 7200 1950 60  0000 C CNN
	1    7200 1950
	1    0    0    -1  
$EndComp
Wire Wire Line
	7200 1950 7200 2400
Wire Wire Line
	7200 2400 7000 2400
Wire Wire Line
	7000 2400 7000 2300
Wire Wire Line
	6900 2300 6900 4600
Wire Wire Line
	6900 4600 8950 4600
Wire Wire Line
	6600 4700 8950 4700
Connection ~ 6600 2950
Wire Wire Line
	6050 3250 8000 3250
Wire Wire Line
	8000 3250 8000 4800
Wire Wire Line
	8000 4800 8950 4800
Wire Wire Line
	6050 3150 8100 3150
Wire Wire Line
	8100 3150 8100 4900
Wire Wire Line
	8100 4900 8950 4900
Wire Wire Line
	6050 3050 8200 3050
Wire Wire Line
	8200 3050 8200 5000
Wire Wire Line
	8200 5000 8950 5000
NoConn ~ 6050 3750
NoConn ~ 6050 3850
NoConn ~ 6050 3950
NoConn ~ 6050 4150
NoConn ~ 6050 4250
NoConn ~ 6050 4450
NoConn ~ 6050 4550
NoConn ~ 6050 4650
NoConn ~ 6050 4750
NoConn ~ 6050 4850
$EndSCHEMATC
