PCBNEW-LibModule-V1  Пт 21 авг 2015 13:20:19
# encoding utf-8
Units mm
$INDEX
conn_2
mbm_conn10
mbm_conn13
mbm_conn2
mbm_conn3
mbm_conn4
mbm_conn6
mbm_dip28_smd
$EndINDEX
$MODULE conn_2
Po 0 0 0 15 55D6BE3F 00000000 ~~
Li conn_2
Sc 0
AR 
Op 0 0 0
T0 1.27 2.54 1 1 0 0.15 N V 21 N "conn_2"
T1 1.27 3.81 1 1 0 0.15 N V 21 N "VAL**"
$PAD
Sh "1" R 1.5 2.54 0 0 0
Dr 0.6 0 0
At STD N 00E0FFFF
Ne 0 ""
Po 0 0
$EndPAD
$PAD
Sh "2" R 1.5 2.54 0 0 0
Dr 0.6 0 0
At STD N 00E0FFFF
Ne 0 ""
Po 2.54 0
$EndPAD
$PAD
Sh "3" R 1.5 2.54 0 0 0
Dr 0.6 0 0
At STD N 00E0FFFF
Ne 0 ""
Po 5.08 0
$EndPAD
$PAD
Sh "4" R 1.5 2.54 0 0 0
Dr 0.6 0 0
At STD N 00E0FFFF
Ne 0 ""
Po 7.62 0
$EndPAD
$PAD
Sh "5" R 1.5 2.54 0 0 0
Dr 0.6 0 0
At STD N 00E0FFFF
Ne 0 ""
Po 10.16 0
$EndPAD
$PAD
Sh "6" R 1.5 2.54 0 0 0
Dr 0.6 0 0
At STD N 00E0FFFF
Ne 0 ""
Po 12.7 0
$EndPAD
$PAD
Sh "7" R 1.5 2.54 0 0 0
Dr 0.6 0 0
At STD N 00E0FFFF
Ne 0 ""
Po 15.24 0
$EndPAD
$PAD
Sh "8" R 1.5 2.54 0 0 0
Dr 0.6 0 0
At STD N 00E0FFFF
Ne 0 ""
Po 17.78 0
$EndPAD
$PAD
Sh "9" R 1.5 2.54 0 0 0
Dr 0.6 0 0
At STD N 00E0FFFF
Ne 0 ""
Po 20.32 0
$EndPAD
$PAD
Sh "10" R 1.5 2.54 0 0 0
Dr 0.6 0 0
At STD N 00E0FFFF
Ne 0 ""
Po 22.86 0
$EndPAD
$PAD
Sh "11" R 1.5 2.54 0 0 0
Dr 0.6 0 0
At STD N 00E0FFFF
Ne 0 ""
Po 25.4 0
$EndPAD
$PAD
Sh "12" R 1.5 2.54 0 0 0
Dr 0.6 0 0
At STD N 00E0FFFF
Ne 0 ""
Po 27.94 0
$EndPAD
$PAD
Sh "13" R 1.5 2.54 0 0 0
Dr 0.6 0 0
At STD N 00E0FFFF
Ne 0 ""
Po 30.48 0
$EndPAD
$PAD
Sh "14" R 1.5 2.54 0 0 0
Dr 0.6 0 0
At STD N 00E0FFFF
Ne 0 ""
Po 33.02 0
$EndPAD
$PAD
Sh "15" R 1.5 2.54 0 0 0
Dr 0.6 0 0
At STD N 00E0FFFF
Ne 0 ""
Po 33.02 -8.89
$EndPAD
$PAD
Sh "16" R 1.5 2.54 0 0 0
Dr 0.6 0 0
At STD N 00E0FFFF
Ne 0 ""
Po 30.48 -8.89
$EndPAD
$PAD
Sh "17" R 1.5 2.54 0 0 0
Dr 0.6 0 0
At STD N 00E0FFFF
Ne 0 ""
Po 27.94 -8.89
$EndPAD
$PAD
Sh "18" R 1.5 2.54 0 0 0
Dr 0.6 0 0
At STD N 00E0FFFF
Ne 0 ""
Po 25.4 -8.89
$EndPAD
$PAD
Sh "19" R 1.5 2.54 0 0 0
Dr 0.6 0 0
At STD N 00E0FFFF
Ne 0 ""
Po 22.86 -8.89
$EndPAD
$PAD
Sh "20" R 1.5 2.54 0 0 0
Dr 0.6 0 0
At STD N 00E0FFFF
Ne 0 ""
Po 20.32 -8.89
$EndPAD
$PAD
Sh "21" R 1.5 2.54 0 0 0
Dr 0.6 0 0
At STD N 00E0FFFF
Ne 0 ""
Po 17.78 -8.89
$EndPAD
$PAD
Sh "22" R 1.5 2.54 0 0 0
Dr 0.6 0 0
At STD N 00E0FFFF
Ne 0 ""
Po 15.24 -8.89
$EndPAD
$PAD
Sh "23" R 1.5 2.54 0 0 0
Dr 0.6 0 0
At STD N 00E0FFFF
Ne 0 ""
Po 12.7 -8.89
$EndPAD
$PAD
Sh "24" R 1.5 2.54 0 0 0
Dr 0.6 0 0
At STD N 00E0FFFF
Ne 0 ""
Po 10.16 -8.89
$EndPAD
$PAD
Sh "25" R 1.5 2.54 0 0 0
Dr 0.6 0 0
At STD N 00E0FFFF
Ne 0 ""
Po 7.62 -8.89
$EndPAD
$PAD
Sh "26" R 1.5 2.54 0 0 0
Dr 0.6 0 0
At STD N 00E0FFFF
Ne 0 ""
Po 5.08 -8.89
$EndPAD
$PAD
Sh "27" R 1.5 2.54 0 0 0
Dr 0.6 0 0
At STD N 00E0FFFF
Ne 0 ""
Po 2.54 -8.89
$EndPAD
$PAD
Sh "28" R 1.5 2.54 0 0 0
Dr 0.6 0 0
At STD N 00E0FFFF
Ne 0 ""
Po 0 -8.89
$EndPAD
$EndMODULE conn_2
$MODULE mbm_conn10
Po 0 0 0 15 55D6C15C 00000000 ~~
Li mbm_conn10
Sc 0
AR 
Op 0 0 0
T0 1.27 2.54 1 1 0 0.15 N V 21 N "mbm_dip28_smd"
T1 1.27 3.81 1 1 0 0.15 N V 21 N "VAL**"
$PAD
Sh "1" R 1.5 2.54 0 0 0
Dr 0.6 0 0
At STD N 00E0FFFF
Ne 0 ""
Po 0 0
$EndPAD
$PAD
Sh "2" R 1.5 2.54 0 0 0
Dr 0.6 0 0
At STD N 00E0FFFF
Ne 0 ""
Po 2.54 0
$EndPAD
$PAD
Sh "3" R 1.5 2.54 0 0 0
Dr 0.6 0 0
At STD N 00E0FFFF
Ne 0 ""
Po 5.08 0
$EndPAD
$PAD
Sh "4" R 1.5 2.54 0 0 0
Dr 0.6 0 0
At STD N 00E0FFFF
Ne 0 ""
Po 7.62 0
$EndPAD
$PAD
Sh "5" R 1.5 2.54 0 0 0
Dr 0.6 0 0
At STD N 00E0FFFF
Ne 0 ""
Po 10.16 0
$EndPAD
$PAD
Sh "6" R 1.5 2.54 0 0 0
Dr 0.6 0 0
At STD N 00E0FFFF
Ne 0 ""
Po 12.7 0
$EndPAD
$PAD
Sh "7" R 1.5 2.54 0 0 0
Dr 0.6 0 0
At STD N 00E0FFFF
Ne 0 ""
Po 15.24 0
$EndPAD
$PAD
Sh "8" R 1.5 2.54 0 0 0
Dr 0.6 0 0
At STD N 00E0FFFF
Ne 0 ""
Po 17.78 0
$EndPAD
$PAD
Sh "9" R 1.5 2.54 0 0 0
Dr 0.6 0 0
At STD N 00E0FFFF
Ne 0 ""
Po 20.32 0
$EndPAD
$PAD
Sh "10" R 1.5 2.54 0 0 0
Dr 0.6 0 0
At STD N 00E0FFFF
Ne 0 ""
Po 22.86 0
$EndPAD
$EndMODULE mbm_conn10
$MODULE mbm_conn13
Po 0 0 0 15 55D6C14A 00000000 ~~
Li mbm_conn13
Sc 0
AR 
Op 0 0 0
T0 1.27 2.54 1 1 0 0.15 N V 21 N "mbm_dip28_smd"
T1 1.27 3.81 1 1 0 0.15 N V 21 N "VAL**"
$PAD
Sh "1" R 1.5 2.54 0 0 0
Dr 0.6 0 0
At STD N 00E0FFFF
Ne 0 ""
Po 0 0
$EndPAD
$PAD
Sh "2" R 1.5 2.54 0 0 0
Dr 0.6 0 0
At STD N 00E0FFFF
Ne 0 ""
Po 2.54 0
$EndPAD
$PAD
Sh "3" R 1.5 2.54 0 0 0
Dr 0.6 0 0
At STD N 00E0FFFF
Ne 0 ""
Po 5.08 0
$EndPAD
$PAD
Sh "4" R 1.5 2.54 0 0 0
Dr 0.6 0 0
At STD N 00E0FFFF
Ne 0 ""
Po 7.62 0
$EndPAD
$PAD
Sh "5" R 1.5 2.54 0 0 0
Dr 0.6 0 0
At STD N 00E0FFFF
Ne 0 ""
Po 10.16 0
$EndPAD
$PAD
Sh "6" R 1.5 2.54 0 0 0
Dr 0.6 0 0
At STD N 00E0FFFF
Ne 0 ""
Po 12.7 0
$EndPAD
$PAD
Sh "7" R 1.5 2.54 0 0 0
Dr 0.6 0 0
At STD N 00E0FFFF
Ne 0 ""
Po 15.24 0
$EndPAD
$PAD
Sh "8" R 1.5 2.54 0 0 0
Dr 0.6 0 0
At STD N 00E0FFFF
Ne 0 ""
Po 17.78 0
$EndPAD
$PAD
Sh "9" R 1.5 2.54 0 0 0
Dr 0.6 0 0
At STD N 00E0FFFF
Ne 0 ""
Po 20.32 0
$EndPAD
$PAD
Sh "10" R 1.5 2.54 0 0 0
Dr 0.6 0 0
At STD N 00E0FFFF
Ne 0 ""
Po 22.86 0
$EndPAD
$PAD
Sh "11" R 1.5 2.54 0 0 0
Dr 0.6 0 0
At STD N 00E0FFFF
Ne 0 ""
Po 25.4 0
$EndPAD
$PAD
Sh "12" R 1.5 2.54 0 0 0
Dr 0.6 0 0
At STD N 00E0FFFF
Ne 0 ""
Po 27.94 0
$EndPAD
$PAD
Sh "13" R 1.5 2.54 0 0 0
Dr 0.6 0 0
At STD N 00E0FFFF
Ne 0 ""
Po 30.48 0
$EndPAD
$EndMODULE mbm_conn13
$MODULE mbm_conn2
Po 0 0 0 15 55D6C188 00000000 ~~
Li mbm_conn2
Sc 0
AR 
Op 0 0 0
T0 1.27 2.54 1 1 0 0.15 N V 21 N "mbm_dip28_smd"
T1 1.27 3.81 1 1 0 0.15 N V 21 N "VAL**"
$PAD
Sh "1" R 1.5 2.54 0 0 0
Dr 0.6 0 0
At STD N 00E0FFFF
Ne 0 ""
Po 0 0
$EndPAD
$PAD
Sh "2" R 1.5 2.54 0 0 0
Dr 0.6 0 0
At STD N 00E0FFFF
Ne 0 ""
Po 2.54 0
$EndPAD
$EndMODULE mbm_conn2
$MODULE mbm_conn3
Po 0 0 0 15 55D6C180 00000000 ~~
Li mbm_conn3
Sc 0
AR 
Op 0 0 0
T0 1.27 2.54 1 1 0 0.15 N V 21 N "mbm_dip28_smd"
T1 1.27 3.81 1 1 0 0.15 N V 21 N "VAL**"
$PAD
Sh "1" R 1.5 2.54 0 0 0
Dr 0.6 0 0
At STD N 00E0FFFF
Ne 0 ""
Po 0 0
$EndPAD
$PAD
Sh "2" R 1.5 2.54 0 0 0
Dr 0.6 0 0
At STD N 00E0FFFF
Ne 0 ""
Po 2.54 0
$EndPAD
$PAD
Sh "3" R 1.5 2.54 0 0 0
Dr 0.6 0 0
At STD N 00E0FFFF
Ne 0 ""
Po 5.08 0
$EndPAD
$EndMODULE mbm_conn3
$MODULE mbm_conn4
Po 0 0 0 15 55D6C178 00000000 ~~
Li mbm_conn4
Sc 0
AR 
Op 0 0 0
T0 1.27 2.54 1 1 0 0.15 N V 21 N "mbm_dip28_smd"
T1 1.27 3.81 1 1 0 0.15 N V 21 N "VAL**"
$PAD
Sh "1" R 1.5 2.54 0 0 0
Dr 0.6 0 0
At STD N 00E0FFFF
Ne 0 ""
Po 0 0
$EndPAD
$PAD
Sh "2" R 1.5 2.54 0 0 0
Dr 0.6 0 0
At STD N 00E0FFFF
Ne 0 ""
Po 2.54 0
$EndPAD
$PAD
Sh "3" R 1.5 2.54 0 0 0
Dr 0.6 0 0
At STD N 00E0FFFF
Ne 0 ""
Po 5.08 0
$EndPAD
$PAD
Sh "4" R 1.5 2.54 0 0 0
Dr 0.6 0 0
At STD N 00E0FFFF
Ne 0 ""
Po 7.62 0
$EndPAD
$EndMODULE mbm_conn4
$MODULE mbm_conn6
Po 0 0 0 15 55D6C16A 00000000 ~~
Li mbm_conn6
Sc 0
AR 
Op 0 0 0
T0 1.27 2.54 1 1 0 0.15 N V 21 N "mbm_dip28_smd"
T1 1.27 3.81 1 1 0 0.15 N V 21 N "VAL**"
$PAD
Sh "1" R 1.5 2.54 0 0 0
Dr 0.6 0 0
At STD N 00E0FFFF
Ne 0 ""
Po 0 0
$EndPAD
$PAD
Sh "2" R 1.5 2.54 0 0 0
Dr 0.6 0 0
At STD N 00E0FFFF
Ne 0 ""
Po 2.54 0
$EndPAD
$PAD
Sh "3" R 1.5 2.54 0 0 0
Dr 0.6 0 0
At STD N 00E0FFFF
Ne 0 ""
Po 5.08 0
$EndPAD
$PAD
Sh "4" R 1.5 2.54 0 0 0
Dr 0.6 0 0
At STD N 00E0FFFF
Ne 0 ""
Po 7.62 0
$EndPAD
$PAD
Sh "5" R 1.5 2.54 0 0 0
Dr 0.6 0 0
At STD N 00E0FFFF
Ne 0 ""
Po 10.16 0
$EndPAD
$PAD
Sh "6" R 1.5 2.54 0 0 0
Dr 0.6 0 0
At STD N 00E0FFFF
Ne 0 ""
Po 12.7 0
$EndPAD
$EndMODULE mbm_conn6
$MODULE mbm_dip28_smd
Po 0 0 0 15 55D6C31E 00000000 ~~
Li mbm_dip28_smd
Sc 0
AR 
Op 0 0 0
T0 1.27 2.54 1 1 0 0.15 N V 21 N "mbm_dip28_smd"
T1 1.27 3.81 1 1 0 0.15 N V 21 N "VAL**"
$PAD
Sh "1" R 1.5 2.54 0 0 0
Dr 0.6 0 0
At STD N 00E0FFFF
Ne 0 ""
Po 0 0
$EndPAD
$PAD
Sh "2" R 1.5 2.54 0 0 0
Dr 0.6 0 0
At STD N 00E0FFFF
Ne 0 ""
Po 2.54 0
$EndPAD
$PAD
Sh "3" R 1.5 2.54 0 0 0
Dr 0.6 0 0
At STD N 00E0FFFF
Ne 0 ""
Po 5.08 0
$EndPAD
$PAD
Sh "4" R 1.5 2.54 0 0 0
Dr 0.6 0 0
At STD N 00E0FFFF
Ne 0 ""
Po 7.62 0
$EndPAD
$PAD
Sh "5" R 1.5 2.54 0 0 0
Dr 0.6 0 0
At STD N 00E0FFFF
Ne 0 ""
Po 10.16 0
$EndPAD
$PAD
Sh "6" R 1.5 2.54 0 0 0
Dr 0.6 0 0
At STD N 00E0FFFF
Ne 0 ""
Po 12.7 0
$EndPAD
$PAD
Sh "7" R 1.5 2.54 0 0 0
Dr 0.6 0 0
At STD N 00E0FFFF
Ne 0 ""
Po 15.24 0
$EndPAD
$PAD
Sh "8" R 1.5 2.54 0 0 0
Dr 0.6 0 0
At STD N 00E0FFFF
Ne 0 ""
Po 17.78 0
$EndPAD
$PAD
Sh "9" R 1.5 2.54 0 0 0
Dr 0.6 0 0
At STD N 00E0FFFF
Ne 0 ""
Po 20.32 0
$EndPAD
$PAD
Sh "10" R 1.5 2.54 0 0 0
Dr 0.6 0 0
At STD N 00E0FFFF
Ne 0 ""
Po 22.86 0
$EndPAD
$PAD
Sh "11" R 1.5 2.54 0 0 0
Dr 0.6 0 0
At STD N 00E0FFFF
Ne 0 ""
Po 25.4 0
$EndPAD
$PAD
Sh "12" R 1.5 2.54 0 0 0
Dr 0.6 0 0
At STD N 00E0FFFF
Ne 0 ""
Po 27.94 0
$EndPAD
$PAD
Sh "13" R 1.5 2.54 0 0 0
Dr 0.6 0 0
At STD N 00E0FFFF
Ne 0 ""
Po 30.48 0
$EndPAD
$PAD
Sh "14" R 1.5 2.54 0 0 0
Dr 0.6 0 0
At STD N 00E0FFFF
Ne 0 ""
Po 33.02 0
$EndPAD
$PAD
Sh "15" R 1.5 2.54 0 0 0
Dr 0.6 0 0
At STD N 00E0FFFF
Ne 0 ""
Po 33.02 -11.43
$EndPAD
$PAD
Sh "16" R 1.5 2.54 0 0 0
Dr 0.6 0 0
At STD N 00E0FFFF
Ne 0 ""
Po 30.48 -11.43
$EndPAD
$PAD
Sh "17" R 1.5 2.54 0 0 0
Dr 0.6 0 0
At STD N 00E0FFFF
Ne 0 ""
Po 27.94 -11.43
$EndPAD
$PAD
Sh "18" R 1.5 2.54 0 0 0
Dr 0.6 0 0
At STD N 00E0FFFF
Ne 0 ""
Po 25.4 -11.43
$EndPAD
$PAD
Sh "19" R 1.5 2.54 0 0 0
Dr 0.6 0 0
At STD N 00E0FFFF
Ne 0 ""
Po 22.86 -11.43
$EndPAD
$PAD
Sh "20" R 1.5 2.54 0 0 0
Dr 0.6 0 0
At STD N 00E0FFFF
Ne 0 ""
Po 20.32 -11.43
$EndPAD
$PAD
Sh "21" R 1.5 2.54 0 0 0
Dr 0.6 0 0
At STD N 00E0FFFF
Ne 0 ""
Po 17.78 -11.43
$EndPAD
$PAD
Sh "22" R 1.5 2.54 0 0 0
Dr 0.6 0 0
At STD N 00E0FFFF
Ne 0 ""
Po 15.24 -11.43
$EndPAD
$PAD
Sh "23" R 1.5 2.54 0 0 0
Dr 0.6 0 0
At STD N 00E0FFFF
Ne 0 ""
Po 12.7 -11.43
$EndPAD
$PAD
Sh "24" R 1.5 2.54 0 0 0
Dr 0.6 0 0
At STD N 00E0FFFF
Ne 0 ""
Po 10.16 -11.43
$EndPAD
$PAD
Sh "25" R 1.5 2.54 0 0 0
Dr 0.6 0 0
At STD N 00E0FFFF
Ne 0 ""
Po 7.62 -11.43
$EndPAD
$PAD
Sh "26" R 1.5 2.54 0 0 0
Dr 0.6 0 0
At STD N 00E0FFFF
Ne 0 ""
Po 5.08 -11.43
$EndPAD
$PAD
Sh "27" R 1.5 2.54 0 0 0
Dr 0.6 0 0
At STD N 00E0FFFF
Ne 0 ""
Po 2.54 -11.43
$EndPAD
$PAD
Sh "28" R 1.5 2.54 0 0 0
Dr 0.6 0 0
At STD N 00E0FFFF
Ne 0 ""
Po 0 -11.43
$EndPAD
$EndMODULE mbm_dip28_smd
$EndLIBRARY
