(kicad_pcb (version 3) (host pcbnew "(22-Jun-2014 BZR 4027)-stable")

  (general
    (links 49)
    (no_connects 0)
    (area 339.785 111.185 381.067 166.691)
    (thickness 1.6)
    (drawings 0)
    (tracks 175)
    (zones 0)
    (modules 12)
    (nets 28)
  )

  (page A3)
  (layers
    (15 F.Cu signal)
    (0 B.Cu signal)
    (16 B.Adhes user)
    (17 F.Adhes user)
    (18 B.Paste user)
    (19 F.Paste user)
    (20 B.SilkS user)
    (21 F.SilkS user)
    (22 B.Mask user)
    (23 F.Mask user)
    (24 Dwgs.User user)
    (25 Cmts.User user)
    (26 Eco1.User user)
    (27 Eco2.User user)
    (28 Edge.Cuts user)
  )

  (setup
    (last_trace_width 0.508)
    (trace_clearance 0.254)
    (zone_clearance 0.508)
    (zone_45_only no)
    (trace_min 0.254)
    (segment_width 0.2)
    (edge_width 0.1)
    (via_size 0.889)
    (via_drill 0.635)
    (via_min_size 0.889)
    (via_min_drill 0.508)
    (uvia_size 0.508)
    (uvia_drill 0.127)
    (uvias_allowed no)
    (uvia_min_size 0.508)
    (uvia_min_drill 0.127)
    (pcb_text_width 0.3)
    (pcb_text_size 1.5 1.5)
    (mod_edge_width 0.15)
    (mod_text_size 1 1)
    (mod_text_width 0.15)
    (pad_size 1.5 2.54)
    (pad_drill 0.6)
    (pad_to_mask_clearance 0)
    (aux_axis_origin 0 0)
    (visible_elements FFFFFFBF)
    (pcbplotparams
      (layerselection 1)
      (usegerberextensions false)
      (excludeedgelayer true)
      (linewidth 0.150000)
      (plotframeref false)
      (viasonmask false)
      (mode 1)
      (useauxorigin false)
      (hpglpennumber 1)
      (hpglpenspeed 20)
      (hpglpendiameter 15)
      (hpglpenoverlay 2)
      (psnegative false)
      (psa4output false)
      (plotreference true)
      (plotvalue true)
      (plotothertext true)
      (plotinvisibletext false)
      (padsonsilk false)
      (subtractmaskfromsilk false)
      (outputformat 2)
      (mirror false)
      (drillshape 0)
      (scaleselection 1)
      (outputdirectory ""))
  )

  (net 0 "")
  (net 1 /MISO)
  (net 2 /MOSI)
  (net 3 /Pin10)
  (net 4 /Pin11)
  (net 5 /Pin12)
  (net 6 /Pin13)
  (net 7 /Pin14)
  (net 8 /Pin15)
  (net 9 /Pin16)
  (net 10 /Pin23)
  (net 11 /Pin24)
  (net 12 /Pin25)
  (net 13 /Pin26)
  (net 14 /Pin27)
  (net 15 /Pin28)
  (net 16 /Pin4)
  (net 17 /Pin5)
  (net 18 /Pin6)
  (net 19 /Pin9)
  (net 20 /RESET)
  (net 21 /RxD)
  (net 22 /SCK)
  (net 23 /TxD)
  (net 24 GND)
  (net 25 N-0000023)
  (net 26 N-0000025)
  (net 27 VCC)

  (net_class Default "Это класс цепей по умолчанию."
    (clearance 0.254)
    (trace_width 0.508)
    (via_dia 0.889)
    (via_drill 0.635)
    (uvia_dia 0.508)
    (uvia_drill 0.127)
    (add_net "")
    (add_net /MISO)
    (add_net /MOSI)
    (add_net /Pin10)
    (add_net /Pin11)
    (add_net /Pin12)
    (add_net /Pin13)
    (add_net /Pin14)
    (add_net /Pin15)
    (add_net /Pin16)
    (add_net /Pin23)
    (add_net /Pin24)
    (add_net /Pin25)
    (add_net /Pin26)
    (add_net /Pin27)
    (add_net /Pin28)
    (add_net /Pin4)
    (add_net /Pin5)
    (add_net /Pin6)
    (add_net /Pin9)
    (add_net /RESET)
    (add_net /RxD)
    (add_net /SCK)
    (add_net /TxD)
    (add_net GND)
    (add_net N-0000023)
    (add_net N-0000025)
    (add_net VCC)
  )

  (module SM1206 (layer B.Cu) (tedit 42806E24) (tstamp 55D6C3A8)
    (at 360.172 150.114 270)
    (path /55CC2CD5)
    (attr smd)
    (fp_text reference R1 (at 0 0 270) (layer B.SilkS)
      (effects (font (size 0.762 0.762) (thickness 0.127)) (justify mirror))
    )
    (fp_text value 10k (at 0 0 270) (layer B.SilkS) hide
      (effects (font (size 0.762 0.762) (thickness 0.127)) (justify mirror))
    )
    (fp_line (start -2.54 1.143) (end -2.54 -1.143) (layer B.SilkS) (width 0.127))
    (fp_line (start -2.54 -1.143) (end -0.889 -1.143) (layer B.SilkS) (width 0.127))
    (fp_line (start 0.889 1.143) (end 2.54 1.143) (layer B.SilkS) (width 0.127))
    (fp_line (start 2.54 1.143) (end 2.54 -1.143) (layer B.SilkS) (width 0.127))
    (fp_line (start 2.54 -1.143) (end 0.889 -1.143) (layer B.SilkS) (width 0.127))
    (fp_line (start -0.889 1.143) (end -2.54 1.143) (layer B.SilkS) (width 0.127))
    (pad 1 smd rect (at -1.651 0 270) (size 1.524 2.032)
      (layers B.Cu B.Paste B.Mask)
      (net 27 VCC)
    )
    (pad 2 smd rect (at 1.651 0 270) (size 1.524 2.032)
      (layers B.Cu B.Paste B.Mask)
      (net 20 /RESET)
    )
    (model smd/chip_cms.wrl
      (at (xyz 0 0 0))
      (scale (xyz 0.17 0.16 0.16))
      (rotate (xyz 0 0 0))
    )
  )

  (module SM1206 (layer B.Cu) (tedit 42806E24) (tstamp 55D6C3B4)
    (at 345.44 158.242)
    (path /55D3146C)
    (attr smd)
    (fp_text reference R3 (at 0 0) (layer B.SilkS)
      (effects (font (size 0.762 0.762) (thickness 0.127)) (justify mirror))
    )
    (fp_text value 10k (at 0 0) (layer B.SilkS) hide
      (effects (font (size 0.762 0.762) (thickness 0.127)) (justify mirror))
    )
    (fp_line (start -2.54 1.143) (end -2.54 -1.143) (layer B.SilkS) (width 0.127))
    (fp_line (start -2.54 -1.143) (end -0.889 -1.143) (layer B.SilkS) (width 0.127))
    (fp_line (start 0.889 1.143) (end 2.54 1.143) (layer B.SilkS) (width 0.127))
    (fp_line (start 2.54 1.143) (end 2.54 -1.143) (layer B.SilkS) (width 0.127))
    (fp_line (start 2.54 -1.143) (end 0.889 -1.143) (layer B.SilkS) (width 0.127))
    (fp_line (start -0.889 1.143) (end -2.54 1.143) (layer B.SilkS) (width 0.127))
    (pad 1 smd rect (at -1.651 0) (size 1.524 2.032)
      (layers B.Cu B.Paste B.Mask)
      (net 23 /TxD)
    )
    (pad 2 smd rect (at 1.651 0) (size 1.524 2.032)
      (layers B.Cu B.Paste B.Mask)
      (net 26 N-0000025)
    )
    (model smd/chip_cms.wrl
      (at (xyz 0 0 0))
      (scale (xyz 0.17 0.16 0.16))
      (rotate (xyz 0 0 0))
    )
  )

  (module SM1206 (layer B.Cu) (tedit 42806E24) (tstamp 55D6C3C0)
    (at 361.442 159.258 180)
    (path /55D31472)
    (attr smd)
    (fp_text reference R2 (at 0 0 180) (layer B.SilkS)
      (effects (font (size 0.762 0.762) (thickness 0.127)) (justify mirror))
    )
    (fp_text value 10k (at 0 0 180) (layer B.SilkS) hide
      (effects (font (size 0.762 0.762) (thickness 0.127)) (justify mirror))
    )
    (fp_line (start -2.54 1.143) (end -2.54 -1.143) (layer B.SilkS) (width 0.127))
    (fp_line (start -2.54 -1.143) (end -0.889 -1.143) (layer B.SilkS) (width 0.127))
    (fp_line (start 0.889 1.143) (end 2.54 1.143) (layer B.SilkS) (width 0.127))
    (fp_line (start 2.54 1.143) (end 2.54 -1.143) (layer B.SilkS) (width 0.127))
    (fp_line (start 2.54 -1.143) (end 0.889 -1.143) (layer B.SilkS) (width 0.127))
    (fp_line (start -0.889 1.143) (end -2.54 1.143) (layer B.SilkS) (width 0.127))
    (pad 1 smd rect (at -1.651 0 180) (size 1.524 2.032)
      (layers B.Cu B.Paste B.Mask)
      (net 21 /RxD)
    )
    (pad 2 smd rect (at 1.651 0 180) (size 1.524 2.032)
      (layers B.Cu B.Paste B.Mask)
      (net 25 N-0000023)
    )
    (model smd/chip_cms.wrl
      (at (xyz 0 0 0))
      (scale (xyz 0.17 0.16 0.16))
      (rotate (xyz 0 0 0))
    )
  )

  (module SM1206 (layer B.Cu) (tedit 42806E24) (tstamp 55D6C3CC)
    (at 352.298 160.782 270)
    (path /55D314AB)
    (attr smd)
    (fp_text reference D2 (at 0 0 270) (layer B.SilkS)
      (effects (font (size 0.762 0.762) (thickness 0.127)) (justify mirror))
    )
    (fp_text value LED (at 0 0 270) (layer B.SilkS) hide
      (effects (font (size 0.762 0.762) (thickness 0.127)) (justify mirror))
    )
    (fp_line (start -2.54 1.143) (end -2.54 -1.143) (layer B.SilkS) (width 0.127))
    (fp_line (start -2.54 -1.143) (end -0.889 -1.143) (layer B.SilkS) (width 0.127))
    (fp_line (start 0.889 1.143) (end 2.54 1.143) (layer B.SilkS) (width 0.127))
    (fp_line (start 2.54 1.143) (end 2.54 -1.143) (layer B.SilkS) (width 0.127))
    (fp_line (start 2.54 -1.143) (end 0.889 -1.143) (layer B.SilkS) (width 0.127))
    (fp_line (start -0.889 1.143) (end -2.54 1.143) (layer B.SilkS) (width 0.127))
    (pad 1 smd rect (at -1.651 0 270) (size 1.524 2.032)
      (layers B.Cu B.Paste B.Mask)
      (net 26 N-0000025)
    )
    (pad 2 smd rect (at 1.651 0 270) (size 1.524 2.032)
      (layers B.Cu B.Paste B.Mask)
      (net 24 GND)
    )
    (model smd/chip_cms.wrl
      (at (xyz 0 0 0))
      (scale (xyz 0.17 0.16 0.16))
      (rotate (xyz 0 0 0))
    )
  )

  (module SM1206 (layer B.Cu) (tedit 42806E24) (tstamp 55D6C3D8)
    (at 356.362 160.782 270)
    (path /55D314B8)
    (attr smd)
    (fp_text reference D1 (at 0 0 270) (layer B.SilkS)
      (effects (font (size 0.762 0.762) (thickness 0.127)) (justify mirror))
    )
    (fp_text value LED (at 0 0 270) (layer B.SilkS) hide
      (effects (font (size 0.762 0.762) (thickness 0.127)) (justify mirror))
    )
    (fp_line (start -2.54 1.143) (end -2.54 -1.143) (layer B.SilkS) (width 0.127))
    (fp_line (start -2.54 -1.143) (end -0.889 -1.143) (layer B.SilkS) (width 0.127))
    (fp_line (start 0.889 1.143) (end 2.54 1.143) (layer B.SilkS) (width 0.127))
    (fp_line (start 2.54 1.143) (end 2.54 -1.143) (layer B.SilkS) (width 0.127))
    (fp_line (start 2.54 -1.143) (end 0.889 -1.143) (layer B.SilkS) (width 0.127))
    (fp_line (start -0.889 1.143) (end -2.54 1.143) (layer B.SilkS) (width 0.127))
    (pad 1 smd rect (at -1.651 0 270) (size 1.524 2.032)
      (layers B.Cu B.Paste B.Mask)
      (net 25 N-0000023)
    )
    (pad 2 smd rect (at 1.651 0 270) (size 1.524 2.032)
      (layers B.Cu B.Paste B.Mask)
      (net 24 GND)
    )
    (model smd/chip_cms.wrl
      (at (xyz 0 0 0))
      (scale (xyz 0.17 0.16 0.16))
      (rotate (xyz 0 0 0))
    )
  )

  (module mbm_conn6 (layer B.Cu) (tedit 55D6C16A) (tstamp 55D6C402)
    (at 354.076 115.824)
    (path /55D30B10)
    (fp_text reference P1 (at 1.27 -2.54) (layer B.SilkS)
      (effects (font (size 1 1) (thickness 0.15)) (justify mirror))
    )
    (fp_text value CONN_PROG (at 1.27 -3.81) (layer B.SilkS)
      (effects (font (size 1 1) (thickness 0.15)) (justify mirror))
    )
    (pad 1 thru_hole rect (at 0 0) (size 1.5 2.54) (drill 0.6)
      (layers *.Cu *.Mask B.SilkS)
      (net 24 GND)
    )
    (pad 2 thru_hole rect (at 2.54 0) (size 1.5 2.54) (drill 0.6)
      (layers *.Cu *.Mask B.SilkS)
      (net 27 VCC)
    )
    (pad 3 thru_hole rect (at 5.08 0) (size 1.5 2.54) (drill 0.6)
      (layers *.Cu *.Mask B.SilkS)
      (net 20 /RESET)
    )
    (pad 4 thru_hole rect (at 7.62 0) (size 1.5 2.54) (drill 0.6)
      (layers *.Cu *.Mask B.SilkS)
      (net 22 /SCK)
    )
    (pad 5 thru_hole rect (at 10.16 0) (size 1.5 2.54) (drill 0.6)
      (layers *.Cu *.Mask B.SilkS)
      (net 1 /MISO)
    )
    (pad 6 thru_hole rect (at 12.7 0) (size 1.5 2.54) (drill 0.6)
      (layers *.Cu *.Mask B.SilkS)
      (net 2 /MOSI)
    )
  )

  (module mbm_conn4 (layer B.Cu) (tedit 55D6C178) (tstamp 55D6C40A)
    (at 376.428 120.396 270)
    (path /55D3F58C)
    (fp_text reference P2 (at 1.27 -2.54 270) (layer B.SilkS)
      (effects (font (size 1 1) (thickness 0.15)) (justify mirror))
    )
    (fp_text value CONN_4 (at 1.27 -3.81 270) (layer B.SilkS)
      (effects (font (size 1 1) (thickness 0.15)) (justify mirror))
    )
    (pad 1 thru_hole rect (at 0 0 270) (size 1.5 2.54) (drill 0.6)
      (layers *.Cu *.Mask B.SilkS)
      (net 8 /Pin15)
    )
    (pad 2 thru_hole rect (at 2.54 0 270) (size 1.5 2.54) (drill 0.6)
      (layers *.Cu *.Mask B.SilkS)
      (net 9 /Pin16)
    )
    (pad 3 thru_hole rect (at 5.08 0 270) (size 1.5 2.54) (drill 0.6)
      (layers *.Cu *.Mask B.SilkS)
      (net 24 GND)
    )
    (pad 4 thru_hole rect (at 7.62 0 270) (size 1.5 2.54) (drill 0.6)
      (layers *.Cu *.Mask B.SilkS)
      (net 27 VCC)
    )
  )

  (module mbm_conn3 (layer B.Cu) (tedit 55D6C180) (tstamp 55D6C411)
    (at 348.996 162.052 180)
    (path /55D30E61)
    (fp_text reference K1 (at 1.27 -2.54 180) (layer B.SilkS)
      (effects (font (size 1 1) (thickness 0.15)) (justify mirror))
    )
    (fp_text value CONN_UART (at 1.27 -3.81 180) (layer B.SilkS)
      (effects (font (size 1 1) (thickness 0.15)) (justify mirror))
    )
    (pad 1 thru_hole rect (at 0 0 180) (size 1.5 2.54) (drill 0.6)
      (layers *.Cu *.Mask B.SilkS)
      (net 24 GND)
    )
    (pad 2 thru_hole rect (at 2.54 0 180) (size 1.5 2.54) (drill 0.6)
      (layers *.Cu *.Mask B.SilkS)
      (net 21 /RxD)
    )
    (pad 3 thru_hole rect (at 5.08 0 180) (size 1.5 2.54) (drill 0.6)
      (layers *.Cu *.Mask B.SilkS)
      (net 23 /TxD)
    )
  )

  (module mbm_conn2 (layer B.Cu) (tedit 55D6C188) (tstamp 55D6C417)
    (at 377.19 162.052 180)
    (path /55D6B951)
    (fp_text reference P3 (at 1.27 -2.54 180) (layer B.SilkS)
      (effects (font (size 1 1) (thickness 0.15)) (justify mirror))
    )
    (fp_text value CONN_VCC (at 1.27 -3.81 180) (layer B.SilkS)
      (effects (font (size 1 1) (thickness 0.15)) (justify mirror))
    )
    (pad 1 thru_hole rect (at 0 0 180) (size 1.5 2.54) (drill 0.6)
      (layers *.Cu *.Mask B.SilkS)
      (net 27 VCC)
    )
    (pad 2 thru_hole rect (at 2.54 0 180) (size 1.5 2.54) (drill 0.6)
      (layers *.Cu *.Mask B.SilkS)
      (net 24 GND)
    )
  )

  (module mbm_conn13 (layer B.Cu) (tedit 55D6C14A) (tstamp 55D6C428)
    (at 344.424 152.908 90)
    (path /55D3EA49)
    (fp_text reference P4 (at 1.27 -2.54 90) (layer B.SilkS)
      (effects (font (size 1 1) (thickness 0.15)) (justify mirror))
    )
    (fp_text value CONN_13 (at 1.27 -3.81 90) (layer B.SilkS)
      (effects (font (size 1 1) (thickness 0.15)) (justify mirror))
    )
    (pad 1 thru_hole rect (at 0 0 90) (size 1.5 2.54) (drill 0.6)
      (layers *.Cu *.Mask B.SilkS)
      (net 16 /Pin4)
    )
    (pad 2 thru_hole rect (at 2.54 0 90) (size 1.5 2.54) (drill 0.6)
      (layers *.Cu *.Mask B.SilkS)
      (net 17 /Pin5)
    )
    (pad 3 thru_hole rect (at 5.08 0 90) (size 1.5 2.54) (drill 0.6)
      (layers *.Cu *.Mask B.SilkS)
      (net 18 /Pin6)
    )
    (pad 4 thru_hole rect (at 7.62 0 90) (size 1.5 2.54) (drill 0.6)
      (layers *.Cu *.Mask B.SilkS)
      (net 27 VCC)
    )
    (pad 5 thru_hole rect (at 10.16 0 90) (size 1.5 2.54) (drill 0.6)
      (layers *.Cu *.Mask B.SilkS)
      (net 24 GND)
    )
    (pad 6 thru_hole rect (at 12.7 0 90) (size 1.5 2.54) (drill 0.6)
      (layers *.Cu *.Mask B.SilkS)
      (net 19 /Pin9)
    )
    (pad 7 thru_hole rect (at 15.24 0 90) (size 1.5 2.54) (drill 0.6)
      (layers *.Cu *.Mask B.SilkS)
      (net 3 /Pin10)
    )
    (pad 8 thru_hole rect (at 17.78 0 90) (size 1.5 2.54) (drill 0.6)
      (layers *.Cu *.Mask B.SilkS)
      (net 4 /Pin11)
    )
    (pad 9 thru_hole rect (at 20.32 0 90) (size 1.5 2.54) (drill 0.6)
      (layers *.Cu *.Mask B.SilkS)
      (net 5 /Pin12)
    )
    (pad 10 thru_hole rect (at 22.86 0 90) (size 1.5 2.54) (drill 0.6)
      (layers *.Cu *.Mask B.SilkS)
      (net 6 /Pin13)
    )
    (pad 11 thru_hole rect (at 25.4 0 90) (size 1.5 2.54) (drill 0.6)
      (layers *.Cu *.Mask B.SilkS)
      (net 7 /Pin14)
    )
    (pad 12 thru_hole rect (at 27.94 0 90) (size 1.5 2.54) (drill 0.6)
      (layers *.Cu *.Mask B.SilkS)
      (net 27 VCC)
    )
    (pad 13 thru_hole rect (at 30.48 0 90) (size 1.5 2.54) (drill 0.6)
      (layers *.Cu *.Mask B.SilkS)
      (net 24 GND)
    )
  )

  (module mbm_conn10 (layer B.Cu) (tedit 55D6C15C) (tstamp 55D6C436)
    (at 376.428 155.448 90)
    (path /55D3EFE4)
    (fp_text reference P5 (at 1.27 -2.54 90) (layer B.SilkS)
      (effects (font (size 1 1) (thickness 0.15)) (justify mirror))
    )
    (fp_text value CONN_10 (at 1.27 -3.81 90) (layer B.SilkS)
      (effects (font (size 1 1) (thickness 0.15)) (justify mirror))
    )
    (pad 1 thru_hole rect (at 0 0 90) (size 1.5 2.54) (drill 0.6)
      (layers *.Cu *.Mask B.SilkS)
      (net 24 GND)
    )
    (pad 2 thru_hole rect (at 2.54 0 90) (size 1.5 2.54) (drill 0.6)
      (layers *.Cu *.Mask B.SilkS)
      (net 27 VCC)
    )
    (pad 3 thru_hole rect (at 5.08 0 90) (size 1.5 2.54) (drill 0.6)
      (layers *.Cu *.Mask B.SilkS)
      (net 15 /Pin28)
    )
    (pad 4 thru_hole rect (at 7.62 0 90) (size 1.5 2.54) (drill 0.6)
      (layers *.Cu *.Mask B.SilkS)
      (net 14 /Pin27)
    )
    (pad 5 thru_hole rect (at 10.16 0 90) (size 1.5 2.54) (drill 0.6)
      (layers *.Cu *.Mask B.SilkS)
      (net 13 /Pin26)
    )
    (pad 6 thru_hole rect (at 12.7 0 90) (size 1.5 2.54) (drill 0.6)
      (layers *.Cu *.Mask B.SilkS)
      (net 12 /Pin25)
    )
    (pad 7 thru_hole rect (at 15.24 0 90) (size 1.5 2.54) (drill 0.6)
      (layers *.Cu *.Mask B.SilkS)
      (net 11 /Pin24)
    )
    (pad 8 thru_hole rect (at 17.78 0 90) (size 1.5 2.54) (drill 0.6)
      (layers *.Cu *.Mask B.SilkS)
      (net 10 /Pin23)
    )
    (pad 9 thru_hole rect (at 20.32 0 90) (size 1.5 2.54) (drill 0.6)
      (layers *.Cu *.Mask B.SilkS)
      (net 24 GND)
    )
    (pad 10 thru_hole rect (at 22.86 0 90) (size 1.5 2.54) (drill 0.6)
      (layers *.Cu *.Mask B.SilkS)
      (net 27 VCC)
    )
  )

  (module mbm_dip28_smd (layer B.Cu) (tedit 55D6C31E) (tstamp 55D6C787)
    (at 355.092 155.448 90)
    (path /55CC2B5F)
    (fp_text reference IC1 (at 1.27 -2.54 90) (layer B.SilkS)
      (effects (font (size 1 1) (thickness 0.15)) (justify mirror))
    )
    (fp_text value ATMEGA8-P (at 1.27 -3.81 90) (layer B.SilkS)
      (effects (font (size 1 1) (thickness 0.15)) (justify mirror))
    )
    (pad 1 thru_hole rect (at 0 0 90) (size 1.5 2.54) (drill 0.6)
      (layers *.Cu *.Mask B.SilkS)
      (net 20 /RESET)
    )
    (pad 2 thru_hole rect (at 2.54 0 90) (size 1.5 2.54) (drill 0.6)
      (layers *.Cu *.Mask B.SilkS)
      (net 21 /RxD)
    )
    (pad 3 thru_hole rect (at 5.08 0 90) (size 1.5 2.54) (drill 0.6)
      (layers *.Cu *.Mask B.SilkS)
      (net 23 /TxD)
    )
    (pad 4 thru_hole rect (at 7.62 0 90) (size 1.5 2.54) (drill 0.6)
      (layers *.Cu *.Mask B.SilkS)
      (net 16 /Pin4)
    )
    (pad 5 thru_hole rect (at 10.16 0 90) (size 1.5 2.54) (drill 0.6)
      (layers *.Cu *.Mask B.SilkS)
      (net 17 /Pin5)
    )
    (pad 6 thru_hole rect (at 12.7 0 90) (size 1.5 2.54) (drill 0.6)
      (layers *.Cu *.Mask B.SilkS)
      (net 18 /Pin6)
    )
    (pad 7 thru_hole rect (at 15.24 0 90) (size 1.5 2.54) (drill 0.6)
      (layers *.Cu *.Mask B.SilkS)
      (net 27 VCC)
    )
    (pad 8 thru_hole rect (at 17.78 0 90) (size 1.5 2.54) (drill 0.6)
      (layers *.Cu *.Mask B.SilkS)
      (net 24 GND)
    )
    (pad 9 thru_hole rect (at 20.32 0 90) (size 1.5 2.54) (drill 0.6)
      (layers *.Cu *.Mask B.SilkS)
      (net 19 /Pin9)
    )
    (pad 10 thru_hole rect (at 22.86 0 90) (size 1.5 2.54) (drill 0.6)
      (layers *.Cu *.Mask B.SilkS)
      (net 3 /Pin10)
    )
    (pad 11 thru_hole rect (at 25.4 0 90) (size 1.5 2.54) (drill 0.6)
      (layers *.Cu *.Mask B.SilkS)
      (net 4 /Pin11)
    )
    (pad 12 thru_hole rect (at 27.94 0 90) (size 1.5 2.54) (drill 0.6)
      (layers *.Cu *.Mask B.SilkS)
      (net 5 /Pin12)
    )
    (pad 13 thru_hole rect (at 30.48 0 90) (size 1.5 2.54) (drill 0.6)
      (layers *.Cu *.Mask B.SilkS)
      (net 6 /Pin13)
    )
    (pad 14 thru_hole rect (at 33.02 0 90) (size 1.5 2.54) (drill 0.6)
      (layers *.Cu *.Mask B.SilkS)
      (net 7 /Pin14)
    )
    (pad 15 thru_hole rect (at 33.02 11.43 90) (size 1.5 2.54) (drill 0.6)
      (layers *.Cu *.Mask B.SilkS)
      (net 8 /Pin15)
    )
    (pad 16 thru_hole rect (at 30.48 11.43 90) (size 1.5 2.54) (drill 0.6)
      (layers *.Cu *.Mask B.SilkS)
      (net 9 /Pin16)
    )
    (pad 17 thru_hole rect (at 27.94 11.43 90) (size 1.5 2.54) (drill 0.6)
      (layers *.Cu *.Mask B.SilkS)
      (net 2 /MOSI)
    )
    (pad 18 thru_hole rect (at 25.4 11.43 90) (size 1.5 2.54) (drill 0.6)
      (layers *.Cu *.Mask B.SilkS)
      (net 1 /MISO)
    )
    (pad 19 thru_hole rect (at 22.86 11.43 90) (size 1.5 2.54) (drill 0.6)
      (layers *.Cu *.Mask B.SilkS)
      (net 22 /SCK)
    )
    (pad 20 thru_hole rect (at 20.32 11.43 90) (size 1.5 2.54) (drill 0.6)
      (layers *.Cu *.Mask B.SilkS)
      (net 27 VCC)
    )
    (pad 21 thru_hole rect (at 17.78 11.43 90) (size 1.5 2.54) (drill 0.6)
      (layers *.Cu *.Mask B.SilkS)
      (net 27 VCC)
    )
    (pad 22 thru_hole rect (at 15.24 11.43 90) (size 1.5 2.54) (drill 0.6)
      (layers *.Cu *.Mask B.SilkS)
      (net 24 GND)
    )
    (pad 23 thru_hole rect (at 12.7 11.43 90) (size 1.5 2.54) (drill 0.6)
      (layers *.Cu *.Mask B.SilkS)
      (net 10 /Pin23)
    )
    (pad 24 thru_hole rect (at 10.16 11.43 90) (size 1.5 2.54) (drill 0.6)
      (layers *.Cu *.Mask B.SilkS)
      (net 11 /Pin24)
    )
    (pad 25 thru_hole rect (at 7.62 11.43 90) (size 1.5 2.54) (drill 0.6)
      (layers *.Cu *.Mask B.SilkS)
      (net 12 /Pin25)
    )
    (pad 26 thru_hole rect (at 5.08 11.43 90) (size 1.5 2.54) (drill 0.6)
      (layers *.Cu *.Mask B.SilkS)
      (net 13 /Pin26)
    )
    (pad 27 thru_hole rect (at 2.54 11.43 90) (size 1.5 2.54) (drill 0.6)
      (layers *.Cu *.Mask B.SilkS)
      (net 14 /Pin27)
    )
    (pad 28 thru_hole rect (at 0 11.43 90) (size 1.5 2.54) (drill 0.6)
      (layers *.Cu *.Mask B.SilkS)
      (net 15 /Pin28)
    )
  )

  (segment (start 364.236 115.824) (end 364.236 118.618) (width 0.508) (layer B.Cu) (net 1))
  (segment (start 364.236 130.048) (end 366.522 130.048) (width 0.508) (layer B.Cu) (net 1) (tstamp 55D6C9DC))
  (segment (start 362.966 128.778) (end 364.236 130.048) (width 0.508) (layer B.Cu) (net 1) (tstamp 55D6C9D8))
  (segment (start 362.966 119.888) (end 362.966 128.778) (width 0.508) (layer B.Cu) (net 1) (tstamp 55D6C9D6))
  (segment (start 364.236 118.618) (end 362.966 119.888) (width 0.508) (layer B.Cu) (net 1) (tstamp 55D6C9D5))
  (segment (start 366.776 116.84) (end 366.776 118.872) (width 0.508) (layer B.Cu) (net 2))
  (segment (start 364.744 127.508) (end 366.522 127.508) (width 0.508) (layer B.Cu) (net 2) (tstamp 55D6C915))
  (segment (start 364.236 127) (end 364.744 127.508) (width 0.508) (layer B.Cu) (net 2) (tstamp 55D6C914))
  (segment (start 364.236 120.904) (end 364.236 127) (width 0.508) (layer B.Cu) (net 2) (tstamp 55D6C913))
  (segment (start 364.744 120.396) (end 364.236 120.904) (width 0.508) (layer B.Cu) (net 2) (tstamp 55D6C912))
  (segment (start 365.252 120.396) (end 364.744 120.396) (width 0.508) (layer B.Cu) (net 2) (tstamp 55D6C911))
  (segment (start 366.776 118.872) (end 365.252 120.396) (width 0.508) (layer B.Cu) (net 2) (tstamp 55D6C910))
  (segment (start 355.092 132.588) (end 353.06 132.588) (width 0.508) (layer B.Cu) (net 3))
  (segment (start 347.98 137.668) (end 344.424 137.668) (width 0.508) (layer B.Cu) (net 3) (tstamp 55D6C897))
  (segment (start 353.06 132.588) (end 347.98 137.668) (width 0.508) (layer B.Cu) (net 3) (tstamp 55D6C895))
  (segment (start 355.092 130.048) (end 353.06 130.048) (width 0.508) (layer B.Cu) (net 4))
  (segment (start 347.98 135.128) (end 344.424 135.128) (width 0.508) (layer B.Cu) (net 4) (tstamp 55D6C891))
  (segment (start 353.06 130.048) (end 347.98 135.128) (width 0.508) (layer B.Cu) (net 4) (tstamp 55D6C88F))
  (segment (start 355.092 127.508) (end 353.06 127.508) (width 0.508) (layer B.Cu) (net 5))
  (segment (start 347.98 132.588) (end 344.424 132.588) (width 0.508) (layer B.Cu) (net 5) (tstamp 55D6C88B))
  (segment (start 353.06 127.508) (end 347.98 132.588) (width 0.508) (layer B.Cu) (net 5) (tstamp 55D6C889))
  (segment (start 355.092 124.968) (end 353.06 124.968) (width 0.508) (layer B.Cu) (net 6))
  (segment (start 347.98 130.048) (end 344.424 130.048) (width 0.508) (layer B.Cu) (net 6) (tstamp 55D6C885))
  (segment (start 353.06 124.968) (end 347.98 130.048) (width 0.508) (layer B.Cu) (net 6) (tstamp 55D6C883))
  (segment (start 355.092 122.428) (end 353.06 122.428) (width 0.508) (layer B.Cu) (net 7))
  (segment (start 347.98 127.508) (end 344.424 127.508) (width 0.508) (layer B.Cu) (net 7) (tstamp 55D6C87D))
  (segment (start 353.06 122.428) (end 347.98 127.508) (width 0.508) (layer B.Cu) (net 7) (tstamp 55D6C87C))
  (segment (start 366.522 122.428) (end 370.84 122.428) (width 0.508) (layer B.Cu) (net 8))
  (segment (start 372.872 120.396) (end 376.428 120.396) (width 0.508) (layer B.Cu) (net 8) (tstamp 55D6C8C1))
  (segment (start 370.84 122.428) (end 372.872 120.396) (width 0.508) (layer B.Cu) (net 8) (tstamp 55D6C8BF))
  (segment (start 366.522 124.968) (end 370.84 124.968) (width 0.508) (layer B.Cu) (net 9))
  (segment (start 372.872 122.936) (end 376.428 122.936) (width 0.508) (layer B.Cu) (net 9) (tstamp 55D6C8C7))
  (segment (start 370.84 124.968) (end 372.872 122.936) (width 0.508) (layer B.Cu) (net 9) (tstamp 55D6C8C5))
  (segment (start 376.428 137.668) (end 375.412 137.668) (width 0.508) (layer B.Cu) (net 10))
  (segment (start 370.332 142.748) (end 366.522 142.748) (width 0.508) (layer B.Cu) (net 10) (tstamp 55D6C8DF))
  (segment (start 375.412 137.668) (end 370.332 142.748) (width 0.508) (layer B.Cu) (net 10) (tstamp 55D6C8DE))
  (segment (start 376.428 140.208) (end 375.412 140.208) (width 0.508) (layer B.Cu) (net 11))
  (segment (start 370.332 145.288) (end 366.522 145.288) (width 0.508) (layer B.Cu) (net 11) (tstamp 55D6C8E4))
  (segment (start 375.412 140.208) (end 370.332 145.288) (width 0.508) (layer B.Cu) (net 11) (tstamp 55D6C8E3))
  (segment (start 376.428 142.748) (end 375.412 142.748) (width 0.508) (layer B.Cu) (net 12))
  (segment (start 370.332 147.828) (end 366.522 147.828) (width 0.508) (layer B.Cu) (net 12) (tstamp 55D6C8E9))
  (segment (start 375.412 142.748) (end 370.332 147.828) (width 0.508) (layer B.Cu) (net 12) (tstamp 55D6C8E8))
  (segment (start 376.428 145.288) (end 375.412 145.288) (width 0.508) (layer B.Cu) (net 13))
  (segment (start 370.332 150.368) (end 366.522 150.368) (width 0.508) (layer B.Cu) (net 13) (tstamp 55D6C8EE))
  (segment (start 375.412 145.288) (end 370.332 150.368) (width 0.508) (layer B.Cu) (net 13) (tstamp 55D6C8ED))
  (segment (start 376.428 147.828) (end 375.412 147.828) (width 0.508) (layer B.Cu) (net 14))
  (segment (start 370.332 152.908) (end 366.522 152.908) (width 0.508) (layer B.Cu) (net 14) (tstamp 55D6C8F3))
  (segment (start 375.412 147.828) (end 370.332 152.908) (width 0.508) (layer B.Cu) (net 14) (tstamp 55D6C8F2))
  (segment (start 376.428 150.368) (end 375.412 150.368) (width 0.508) (layer B.Cu) (net 15))
  (segment (start 370.332 155.448) (end 366.522 155.448) (width 0.508) (layer B.Cu) (net 15) (tstamp 55D6DB81))
  (segment (start 375.412 150.368) (end 370.332 155.448) (width 0.508) (layer B.Cu) (net 15) (tstamp 55D6DB7D))
  (segment (start 355.092 147.828) (end 353.06 147.828) (width 0.508) (layer B.Cu) (net 16))
  (segment (start 347.98 152.908) (end 344.424 152.908) (width 0.508) (layer B.Cu) (net 16) (tstamp 55D6C8BB))
  (segment (start 353.06 147.828) (end 347.98 152.908) (width 0.508) (layer B.Cu) (net 16) (tstamp 55D6C8B9))
  (segment (start 355.092 145.288) (end 353.06 145.288) (width 0.508) (layer B.Cu) (net 17))
  (segment (start 347.98 150.368) (end 344.424 150.368) (width 0.508) (layer B.Cu) (net 17) (tstamp 55D6C8B5))
  (segment (start 353.06 145.288) (end 347.98 150.368) (width 0.508) (layer B.Cu) (net 17) (tstamp 55D6C8B3))
  (segment (start 355.092 142.748) (end 353.06 142.748) (width 0.508) (layer B.Cu) (net 18))
  (segment (start 347.98 147.828) (end 344.424 147.828) (width 0.508) (layer B.Cu) (net 18) (tstamp 55D6C8AF))
  (segment (start 353.06 142.748) (end 347.98 147.828) (width 0.508) (layer B.Cu) (net 18) (tstamp 55D6C8AD))
  (segment (start 355.092 135.128) (end 353.06 135.128) (width 0.508) (layer B.Cu) (net 19))
  (segment (start 347.98 140.208) (end 344.424 140.208) (width 0.508) (layer B.Cu) (net 19) (tstamp 55D6C89D))
  (segment (start 353.06 135.128) (end 347.98 140.208) (width 0.508) (layer B.Cu) (net 19) (tstamp 55D6C89B))
  (segment (start 360.172 151.765) (end 360.172 155.448) (width 0.508) (layer B.Cu) (net 20))
  (segment (start 359.156 115.824) (end 359.156 118.11) (width 0.508) (layer B.Cu) (net 20))
  (segment (start 361.188 155.448) (end 360.172 155.448) (width 0.508) (layer B.Cu) (net 20) (tstamp 55D6E916))
  (segment (start 360.172 155.448) (end 355.092 155.448) (width 0.508) (layer B.Cu) (net 20) (tstamp 55D6E99B))
  (segment (start 362.458 154.178) (end 361.188 155.448) (width 0.508) (layer B.Cu) (net 20) (tstamp 55D6E90E))
  (segment (start 362.458 133.096) (end 362.458 154.178) (width 0.508) (layer B.Cu) (net 20) (tstamp 55D6E908))
  (segment (start 360.426 131.064) (end 362.458 133.096) (width 0.508) (layer B.Cu) (net 20) (tstamp 55D6E905))
  (segment (start 360.426 119.38) (end 360.426 131.064) (width 0.508) (layer B.Cu) (net 20) (tstamp 55D6E903))
  (segment (start 359.156 118.11) (end 360.426 119.38) (width 0.508) (layer B.Cu) (net 20) (tstamp 55D6E900))
  (segment (start 355.092 152.908) (end 352.298 152.908) (width 0.508) (layer B.Cu) (net 21))
  (segment (start 345.948 160.02) (end 347.472 160.02) (width 0.508) (layer B.Cu) (net 21) (tstamp 55D6D4E5))
  (segment (start 345.44 159.512) (end 345.948 160.02) (width 0.508) (layer B.Cu) (net 21) (tstamp 55D6D4E3))
  (segment (start 345.44 156.464) (end 345.44 159.512) (width 0.508) (layer B.Cu) (net 21) (tstamp 55D6D4E2))
  (segment (start 345.948 155.956) (end 345.44 156.464) (width 0.508) (layer B.Cu) (net 21) (tstamp 55D6D4E0))
  (segment (start 349.25 155.956) (end 345.948 155.956) (width 0.508) (layer B.Cu) (net 21) (tstamp 55D6D4DF))
  (segment (start 352.298 152.908) (end 349.25 155.956) (width 0.508) (layer B.Cu) (net 21) (tstamp 55D6D4DD))
  (segment (start 363.093 159.258) (end 363.093 160.147) (width 0.508) (layer B.Cu) (net 21))
  (segment (start 346.456 161.036) (end 346.456 162.052) (width 0.508) (layer B.Cu) (net 21) (tstamp 55D6D4D8))
  (segment (start 347.472 160.02) (end 346.456 161.036) (width 0.508) (layer B.Cu) (net 21) (tstamp 55D6D4D7))
  (segment (start 350.266 160.02) (end 347.472 160.02) (width 0.508) (layer B.Cu) (net 21) (tstamp 55D6D4D6))
  (segment (start 351.028 160.782) (end 350.266 160.02) (width 0.508) (layer B.Cu) (net 21) (tstamp 55D6D4D1))
  (segment (start 357.886 160.782) (end 351.028 160.782) (width 0.508) (layer B.Cu) (net 21) (tstamp 55D6D4CF))
  (segment (start 358.14 161.036) (end 357.886 160.782) (width 0.508) (layer B.Cu) (net 21) (tstamp 55D6D4CE))
  (segment (start 362.204 161.036) (end 358.14 161.036) (width 0.508) (layer B.Cu) (net 21) (tstamp 55D6D4CC))
  (segment (start 363.093 160.147) (end 362.204 161.036) (width 0.508) (layer B.Cu) (net 21) (tstamp 55D6D4CA))
  (segment (start 361.696 115.824) (end 361.696 130.302) (width 0.508) (layer B.Cu) (net 22))
  (segment (start 363.982 132.588) (end 366.522 132.588) (width 0.508) (layer B.Cu) (net 22) (tstamp 55D6C9D0))
  (segment (start 361.696 130.302) (end 363.982 132.588) (width 0.508) (layer B.Cu) (net 22) (tstamp 55D6C9CE))
  (segment (start 343.789 158.242) (end 343.789 161.925) (width 0.508) (layer B.Cu) (net 23))
  (segment (start 343.789 161.925) (end 343.916 162.052) (width 0.508) (layer B.Cu) (net 23) (tstamp 55D6D41B))
  (segment (start 355.092 150.368) (end 352.806 150.368) (width 0.508) (layer B.Cu) (net 23))
  (segment (start 344.17 157.861) (end 343.789 158.242) (width 0.508) (layer B.Cu) (net 23) (tstamp 55D6D418))
  (segment (start 344.17 155.956) (end 344.17 157.861) (width 0.508) (layer B.Cu) (net 23) (tstamp 55D6D417))
  (segment (start 345.44 154.686) (end 344.17 155.956) (width 0.508) (layer B.Cu) (net 23) (tstamp 55D6D416))
  (segment (start 348.488 154.686) (end 345.44 154.686) (width 0.508) (layer B.Cu) (net 23) (tstamp 55D6D415))
  (segment (start 352.806 150.368) (end 348.488 154.686) (width 0.508) (layer B.Cu) (net 23) (tstamp 55D6D414))
  (segment (start 348.996 162.052) (end 348.996 165.1) (width 0.508) (layer B.Cu) (net 24))
  (segment (start 352.298 162.433) (end 352.298 165.1) (width 0.508) (layer B.Cu) (net 24))
  (segment (start 356.362 162.433) (end 356.362 165.1) (width 0.508) (layer B.Cu) (net 24))
  (segment (start 341.884 142.748) (end 344.424 142.748) (width 0.508) (layer B.Cu) (net 24))
  (segment (start 341.884 122.428) (end 344.424 122.428) (width 0.508) (layer B.Cu) (net 24))
  (segment (start 354.076 113.284) (end 354.076 115.824) (width 0.508) (layer B.Cu) (net 24))
  (segment (start 379.476 114.3) (end 378.46 113.284) (width 0.508) (layer B.Cu) (net 24))
  (segment (start 379.476 125.476) (end 379.476 114.3) (width 0.508) (layer B.Cu) (net 24) (tstamp 55D6DE64))
  (segment (start 342.392 165.1) (end 348.996 165.1) (width 0.508) (layer B.Cu) (net 24) (tstamp 55D6DE8B))
  (segment (start 348.996 165.1) (end 352.298 165.1) (width 0.508) (layer B.Cu) (net 24) (tstamp 55D6DEDA))
  (segment (start 352.298 165.1) (end 356.362 165.1) (width 0.508) (layer B.Cu) (net 24) (tstamp 55D6DED2))
  (segment (start 356.362 165.1) (end 373.38 165.1) (width 0.508) (layer B.Cu) (net 24) (tstamp 55D6DEC2))
  (segment (start 341.884 164.592) (end 342.392 165.1) (width 0.508) (layer B.Cu) (net 24) (tstamp 55D6DE80))
  (segment (start 341.884 113.792) (end 341.884 122.428) (width 0.508) (layer B.Cu) (net 24) (tstamp 55D6DE7F))
  (segment (start 341.884 122.428) (end 341.884 142.748) (width 0.508) (layer B.Cu) (net 24) (tstamp 55D6DE9D))
  (segment (start 341.884 142.748) (end 341.884 164.592) (width 0.508) (layer B.Cu) (net 24) (tstamp 55D6DEA7))
  (segment (start 342.392 113.284) (end 341.884 113.792) (width 0.508) (layer B.Cu) (net 24) (tstamp 55D6DE7A))
  (segment (start 378.46 113.284) (end 354.076 113.284) (width 0.508) (layer B.Cu) (net 24) (tstamp 55D6DE78))
  (segment (start 354.076 113.284) (end 342.392 113.284) (width 0.508) (layer B.Cu) (net 24) (tstamp 55D6DE99))
  (segment (start 379.476 155.448) (end 376.428 155.448) (width 0.508) (layer B.Cu) (net 24))
  (segment (start 379.476 135.128) (end 376.428 135.128) (width 0.508) (layer B.Cu) (net 24))
  (segment (start 379.476 125.476) (end 376.428 125.476) (width 0.508) (layer B.Cu) (net 24))
  (segment (start 374.65 162.052) (end 374.65 164.846) (width 0.508) (layer B.Cu) (net 24))
  (segment (start 379.476 165.1) (end 379.476 155.448) (width 0.508) (layer B.Cu) (net 24) (tstamp 55D6DE55))
  (segment (start 379.476 155.448) (end 379.476 135.128) (width 0.508) (layer B.Cu) (net 24) (tstamp 55D6DE6C))
  (segment (start 379.476 135.128) (end 379.476 125.476) (width 0.508) (layer B.Cu) (net 24) (tstamp 55D6DE68))
  (segment (start 374.904 165.1) (end 379.476 165.1) (width 0.508) (layer B.Cu) (net 24) (tstamp 55D6DE50))
  (segment (start 374.65 164.846) (end 374.904 165.1) (width 0.508) (layer B.Cu) (net 24) (tstamp 55D6DE4D))
  (segment (start 376.428 135.128) (end 375.412 135.128) (width 0.508) (layer B.Cu) (net 24))
  (segment (start 375.412 135.128) (end 370.332 140.208) (width 0.508) (layer B.Cu) (net 24) (tstamp 55D6DE05))
  (segment (start 370.332 140.208) (end 366.522 140.208) (width 0.508) (layer B.Cu) (net 24) (tstamp 55D6DE07))
  (segment (start 355.092 137.668) (end 353.06 137.668) (width 0.508) (layer B.Cu) (net 24))
  (segment (start 353.06 137.668) (end 347.98 142.748) (width 0.508) (layer B.Cu) (net 24) (tstamp 55D6C8A1))
  (segment (start 347.98 142.748) (end 344.424 142.748) (width 0.508) (layer B.Cu) (net 24) (tstamp 55D6C8A3))
  (segment (start 359.791 159.258) (end 356.489 159.258) (width 0.508) (layer B.Cu) (net 25))
  (segment (start 356.489 159.258) (end 356.362 159.131) (width 0.508) (layer B.Cu) (net 25) (tstamp 55D6D481))
  (segment (start 352.298 159.131) (end 350.901 159.131) (width 0.508) (layer B.Cu) (net 26))
  (segment (start 350.012 158.242) (end 347.091 158.242) (width 0.508) (layer B.Cu) (net 26) (tstamp 55D6D485))
  (segment (start 350.901 159.131) (end 350.012 158.242) (width 0.508) (layer B.Cu) (net 26) (tstamp 55D6D484))
  (segment (start 377.19 162.052) (end 377.19 160.274) (width 0.508) (layer B.Cu) (net 27))
  (segment (start 372.11 158.496) (end 370.84 157.226) (width 0.508) (layer B.Cu) (net 27) (tstamp 55D6E9AF))
  (segment (start 375.412 158.496) (end 372.11 158.496) (width 0.508) (layer B.Cu) (net 27) (tstamp 55D6E9AE))
  (segment (start 377.19 160.274) (end 375.412 158.496) (width 0.508) (layer B.Cu) (net 27) (tstamp 55D6E9AB))
  (segment (start 360.172 148.463) (end 357.632 148.463) (width 0.508) (layer B.Cu) (net 27))
  (segment (start 366.522 137.668) (end 364.744 137.668) (width 0.508) (layer B.Cu) (net 27))
  (segment (start 363.728 138.684) (end 363.728 157.226) (width 0.508) (layer B.Cu) (net 27) (tstamp 55D6E97D))
  (segment (start 364.744 137.668) (end 363.728 138.684) (width 0.508) (layer B.Cu) (net 27) (tstamp 55D6E97A))
  (segment (start 356.616 118.618) (end 353.822 118.618) (width 0.508) (layer B.Cu) (net 27))
  (segment (start 347.472 124.968) (end 344.424 124.968) (width 0.508) (layer B.Cu) (net 27) (tstamp 55D6E96B))
  (segment (start 353.822 118.618) (end 347.472 124.968) (width 0.508) (layer B.Cu) (net 27) (tstamp 55D6E966))
  (segment (start 357.632 140.716) (end 357.632 134.874) (width 0.508) (layer B.Cu) (net 27))
  (segment (start 356.616 118.618) (end 356.616 115.824) (width 0.508) (layer B.Cu) (net 27) (tstamp 55D6E960))
  (segment (start 358.394 120.396) (end 356.616 118.618) (width 0.508) (layer B.Cu) (net 27) (tstamp 55D6E95D))
  (segment (start 358.394 134.112) (end 358.394 120.396) (width 0.508) (layer B.Cu) (net 27) (tstamp 55D6E959))
  (segment (start 357.632 134.874) (end 358.394 134.112) (width 0.508) (layer B.Cu) (net 27) (tstamp 55D6E955))
  (segment (start 376.428 152.908) (end 375.158 152.908) (width 0.508) (layer B.Cu) (net 27))
  (segment (start 375.158 152.908) (end 370.84 157.226) (width 0.508) (layer B.Cu) (net 27) (tstamp 55D6E933))
  (segment (start 370.84 157.226) (end 363.728 157.226) (width 0.508) (layer B.Cu) (net 27) (tstamp 55D6E93A))
  (segment (start 357.124 140.208) (end 355.092 140.208) (width 0.508) (layer B.Cu) (net 27) (tstamp 55D6E951))
  (segment (start 357.632 140.716) (end 357.124 140.208) (width 0.508) (layer B.Cu) (net 27) (tstamp 55D6E94F))
  (segment (start 357.632 153.416) (end 357.632 148.463) (width 0.508) (layer B.Cu) (net 27) (tstamp 55D6E949))
  (segment (start 357.632 148.463) (end 357.632 140.716) (width 0.508) (layer B.Cu) (net 27) (tstamp 55D6E9A0))
  (segment (start 363.728 157.226) (end 353.314 157.226) (width 0.508) (layer B.Cu) (net 27) (tstamp 55D6E984))
  (segment (start 353.314 157.226) (end 352.552 156.464) (width 0.508) (layer B.Cu) (net 27) (tstamp 55D6E93E))
  (segment (start 352.552 156.464) (end 352.552 154.94) (width 0.508) (layer B.Cu) (net 27) (tstamp 55D6E93F))
  (segment (start 352.552 154.94) (end 353.314 154.178) (width 0.508) (layer B.Cu) (net 27) (tstamp 55D6E941))
  (segment (start 353.314 154.178) (end 356.87 154.178) (width 0.508) (layer B.Cu) (net 27) (tstamp 55D6E944))
  (segment (start 356.87 154.178) (end 357.632 153.416) (width 0.508) (layer B.Cu) (net 27) (tstamp 55D6E946))
  (segment (start 376.428 132.588) (end 375.412 132.588) (width 0.508) (layer B.Cu) (net 27))
  (segment (start 370.332 137.668) (end 366.522 137.668) (width 0.508) (layer B.Cu) (net 27) (tstamp 55D6DE10))
  (segment (start 375.412 132.588) (end 370.332 137.668) (width 0.508) (layer B.Cu) (net 27) (tstamp 55D6DE0B))
  (segment (start 366.522 135.128) (end 366.522 137.668) (width 0.508) (layer B.Cu) (net 27))
  (segment (start 376.428 128.016) (end 376.428 132.588) (width 0.508) (layer B.Cu) (net 27))
  (segment (start 355.092 140.208) (end 353.06 140.208) (width 0.508) (layer B.Cu) (net 27))
  (segment (start 347.98 145.288) (end 344.424 145.288) (width 0.508) (layer B.Cu) (net 27) (tstamp 55D6C8A9))
  (segment (start 353.06 140.208) (end 347.98 145.288) (width 0.508) (layer B.Cu) (net 27) (tstamp 55D6C8A7))

)
