(export (version D)
  (design
    (source "/home/max/av/!мое/паяние/kicad/atmega modules/mega board/megaboard.sch")
    (date "Пт 21 авг 2015 16:06:17")
    (tool "eeschema (22-Jun-2014 BZR 4027)-stable"))
  (components
    (comp (ref IC1)
      (value ATMEGA8-P)
      (footprint DIL28)
      (libsource (lib atmel) (part ATMEGA8-P))
      (sheetpath (names /) (tstamps /))
      (tstamp 55CC2B5F))
    (comp (ref R1)
      (value 10k)
      (libsource (lib device) (part R))
      (sheetpath (names /) (tstamps /))
      (tstamp 55CC2CD5))
    (comp (ref P1)
      (value CONN_PROG)
      (libsource (lib conn) (part CONN_6))
      (sheetpath (names /) (tstamps /))
      (tstamp 55D30B10))
    (comp (ref K1)
      (value CONN_UART)
      (libsource (lib conn) (part CONN_3))
      (sheetpath (names /) (tstamps /))
      (tstamp 55D30E61))
    (comp (ref R3)
      (value 10k)
      (libsource (lib device) (part R))
      (sheetpath (names /) (tstamps /))
      (tstamp 55D3146C))
    (comp (ref R2)
      (value 10k)
      (libsource (lib device) (part R))
      (sheetpath (names /) (tstamps /))
      (tstamp 55D31472))
    (comp (ref D2)
      (value LED)
      (libsource (lib device) (part LED))
      (sheetpath (names /) (tstamps /))
      (tstamp 55D314AB))
    (comp (ref D1)
      (value LED)
      (libsource (lib device) (part LED))
      (sheetpath (names /) (tstamps /))
      (tstamp 55D314B8))
    (comp (ref P4)
      (value CONN_13)
      (libsource (lib conn) (part CONN_13))
      (sheetpath (names /) (tstamps /))
      (tstamp 55D3EA49))
    (comp (ref P5)
      (value CONN_10)
      (libsource (lib conn) (part CONN_10))
      (sheetpath (names /) (tstamps /))
      (tstamp 55D3EFE4))
    (comp (ref P2)
      (value CONN_4)
      (libsource (lib conn) (part CONN_4))
      (sheetpath (names /) (tstamps /))
      (tstamp 55D3F58C))
    (comp (ref P3)
      (value CONN_VCC)
      (libsource (lib conn) (part CONN_2))
      (sheetpath (names /) (tstamps /))
      (tstamp 55D6B951)))
  (libparts
    (libpart (lib device) (part LED)
      (footprints
        (fp LED-3MM)
        (fp LED-5MM)
        (fp LED-10MM)
        (fp LED-0603)
        (fp LED-0805)
        (fp LED-1206)
        (fp LEDV))
      (fields
        (field (name Reference) D)
        (field (name Value) LED)
        (field (name Footprint) ~)
        (field (name Datasheet) ~))
      (pins
        (pin (num 1) (name A) (type passive))
        (pin (num 2) (name K) (type passive))))
    (libpart (lib device) (part R)
      (description Resistance)
      (footprints
        (fp R?)
        (fp SM0603)
        (fp SM0805)
        (fp R?-*)
        (fp SM1206))
      (fields
        (field (name Reference) R)
        (field (name Value) R)
        (field (name Footprint) ~)
        (field (name Datasheet) ~))
      (pins
        (pin (num 1) (name ~) (type passive))
        (pin (num 2) (name ~) (type passive))))
    (libpart (lib conn) (part CONN_10)
      (description "Symbole general de connecteur")
      (fields
        (field (name Reference) P)
        (field (name Value) CONN_10))
      (pins
        (pin (num 1) (name P1) (type passive))
        (pin (num 2) (name P2) (type passive))
        (pin (num 3) (name P3) (type passive))
        (pin (num 4) (name P4) (type passive))
        (pin (num 5) (name P5) (type passive))
        (pin (num 6) (name P6) (type passive))
        (pin (num 7) (name P7) (type passive))
        (pin (num 8) (name P8) (type passive))
        (pin (num 9) (name P9) (type passive))
        (pin (num 10) (name P10) (type passive))))
    (libpart (lib conn) (part CONN_13)
      (description "Symbole general de connexion")
      (fields
        (field (name Reference) P)
        (field (name Value) CONN_13))
      (pins
        (pin (num 1) (name P1) (type passive))
        (pin (num 2) (name P2) (type passive))
        (pin (num 3) (name P3) (type passive))
        (pin (num 4) (name P4) (type passive))
        (pin (num 5) (name P5) (type passive))
        (pin (num 6) (name P6) (type passive))
        (pin (num 7) (name P7) (type passive))
        (pin (num 8) (name P8) (type passive))
        (pin (num 9) (name P9) (type passive))
        (pin (num 10) (name P10) (type passive))
        (pin (num 11) (name P11) (type passive))
        (pin (num 12) (name P12) (type passive))
        (pin (num 13) (name P13) (type passive))))
    (libpart (lib conn) (part CONN_2)
      (description "Symbole general de connecteur")
      (fields
        (field (name Reference) P)
        (field (name Value) CONN_2))
      (pins
        (pin (num 1) (name P1) (type passive))
        (pin (num 2) (name PM) (type passive))))
    (libpart (lib conn) (part CONN_3)
      (description "Symbole general de connecteur")
      (fields
        (field (name Reference) K)
        (field (name Value) CONN_3))
      (pins
        (pin (num 1) (name P1) (type passive))
        (pin (num 2) (name PM) (type passive))
        (pin (num 3) (name P3) (type passive))))
    (libpart (lib conn) (part CONN_4)
      (description "Symbole general de connecteur")
      (fields
        (field (name Reference) P)
        (field (name Value) CONN_4))
      (pins
        (pin (num 1) (name P1) (type passive))
        (pin (num 2) (name P2) (type passive))
        (pin (num 3) (name P3) (type passive))
        (pin (num 4) (name P4) (type passive))))
    (libpart (lib conn) (part CONN_6)
      (description "ymbole general de connecteur")
      (fields
        (field (name Reference) P)
        (field (name Value) CONN_6))
      (pins
        (pin (num 1) (name 1) (type passive))
        (pin (num 2) (name 2) (type passive))
        (pin (num 3) (name 3) (type passive))
        (pin (num 4) (name 4) (type passive))
        (pin (num 5) (name 5) (type passive))
        (pin (num 6) (name 6) (type passive))))
    (libpart (lib atmel) (part ATMEGA8-P)
      (description "ATMEGA8, PDIP28 Narrow, 8k Flash, 1k SRAM, 512B EEPROM")
      (docs http://www.atmel.com/dyn/resources/prod_documents/doc2486.pdf)
      (footprints
        (fp 28DIP-ELL600)
        (fp 28dip600))
      (fields
        (field (name Reference) IC)
        (field (name Value) ATMEGA8-P)
        (field (name Footprint) DIL28))
      (pins
        (pin (num 1) (name "PC6(~RESET~)") (type BiDi))
        (pin (num 2) (name "(RXD)PD0") (type BiDi))
        (pin (num 3) (name "(TXD)PD1") (type BiDi))
        (pin (num 4) (name "(INT0)PD2") (type BiDi))
        (pin (num 5) (name "(INT1)PD3") (type BiDi))
        (pin (num 6) (name "(XCK/T0)PD4") (type BiDi))
        (pin (num 7) (name VCC) (type power_in))
        (pin (num 8) (name GND) (type power_in))
        (pin (num 9) (name "PB6(XTAL1/TOSC1)") (type BiDi))
        (pin (num 10) (name "PB7(XTAL2/TOSC2)") (type BiDi))
        (pin (num 11) (name "(T1)PD5") (type BiDi))
        (pin (num 12) (name "(AIN0)PD6") (type BiDi))
        (pin (num 13) (name "(AIN1)PD7") (type BiDi))
        (pin (num 14) (name "(ICP)PB0") (type BiDi))
        (pin (num 15) (name "(OC1A)PB1") (type BiDi))
        (pin (num 16) (name "(~SS~/OC1B)PB2") (type BiDi))
        (pin (num 17) (name "(MOSI/OC2)PB3") (type BiDi))
        (pin (num 18) (name "(MISO)PB4") (type BiDi))
        (pin (num 19) (name "(SCK)PB5") (type BiDi))
        (pin (num 20) (name AVCC) (type power_in))
        (pin (num 21) (name AREF) (type BiDi))
        (pin (num 22) (name AGND) (type power_in))
        (pin (num 23) (name "(ADC0)PC0") (type BiDi))
        (pin (num 24) (name "(ADC1)PC1") (type BiDi))
        (pin (num 25) (name "(ADC2)PC2") (type BiDi))
        (pin (num 26) (name "(ADC3)PC3") (type BiDi))
        (pin (num 27) (name "(ADC4/SDA)PC4") (type BiDi))
        (pin (num 28) (name "(ADC5/SCL)PC5") (type BiDi)))))
  (libraries
    (library (logical device)
      (uri /usr/share/kicad/library/device.lib))
    (library (logical conn)
      (uri /usr/share/kicad/library/conn.lib))
    (library (logical atmel)
      (uri /usr/share/kicad/library/atmel.lib)))
  (nets
    (net (code 1) (name GND)
      (node (ref P5) (pin 1))
      (node (ref P2) (pin 3))
      (node (ref P3) (pin 2))
      (node (ref IC1) (pin 22))
      (node (ref D1) (pin 2))
      (node (ref D2) (pin 2))
      (node (ref P4) (pin 5))
      (node (ref P1) (pin 1))
      (node (ref P4) (pin 13))
      (node (ref IC1) (pin 8))
      (node (ref P5) (pin 9))
      (node (ref K1) (pin 1)))
    (net (code 2) (name /Pin13)
      (node (ref IC1) (pin 13))
      (node (ref P4) (pin 10)))
    (net (code 3) (name /Pin12)
      (node (ref IC1) (pin 12))
      (node (ref P4) (pin 9)))
    (net (code 4) (name /Pin11)
      (node (ref P4) (pin 8))
      (node (ref IC1) (pin 11)))
    (net (code 5) (name /Pin10)
      (node (ref IC1) (pin 10))
      (node (ref P4) (pin 7)))
    (net (code 6) (name VCC)
      (node (ref P2) (pin 4))
      (node (ref P4) (pin 4))
      (node (ref R1) (pin 1))
      (node (ref P5) (pin 10))
      (node (ref P5) (pin 2))
      (node (ref P4) (pin 12))
      (node (ref IC1) (pin 7))
      (node (ref IC1) (pin 20))
      (node (ref IC1) (pin 21))
      (node (ref P1) (pin 2))
      (node (ref P3) (pin 1)))
    (net (code 7) (name /Pin23)
      (node (ref P5) (pin 8))
      (node (ref IC1) (pin 23)))
    (net (code 8) (name /Pin24)
      (node (ref IC1) (pin 24))
      (node (ref P5) (pin 7)))
    (net (code 9) (name /Pin25)
      (node (ref P5) (pin 6))
      (node (ref IC1) (pin 25)))
    (net (code 10) (name /Pin26)
      (node (ref IC1) (pin 26))
      (node (ref P5) (pin 5)))
    (net (code 11) (name /Pin27)
      (node (ref P5) (pin 4))
      (node (ref IC1) (pin 27)))
    (net (code 12) (name /Pin28)
      (node (ref P5) (pin 3))
      (node (ref IC1) (pin 28)))
    (net (code 13) (name /Pin9)
      (node (ref IC1) (pin 9))
      (node (ref P4) (pin 6)))
    (net (code 14) (name /Pin14)
      (node (ref P4) (pin 11))
      (node (ref IC1) (pin 14)))
    (net (code 15) (name /Pin5)
      (node (ref IC1) (pin 5))
      (node (ref P4) (pin 2)))
    (net (code 16) (name /Pin6)
      (node (ref P4) (pin 3))
      (node (ref IC1) (pin 6)))
    (net (code 17) (name /Pin15)
      (node (ref IC1) (pin 15))
      (node (ref P2) (pin 1)))
    (net (code 18) (name /Pin16)
      (node (ref IC1) (pin 16))
      (node (ref P2) (pin 2)))
    (net (code 19) (name /SCK)
      (node (ref IC1) (pin 19))
      (node (ref P1) (pin 4)))
    (net (code 20) (name /RESET)
      (node (ref IC1) (pin 1))
      (node (ref P1) (pin 3))
      (node (ref R1) (pin 2)))
    (net (code 21) (name /MOSI)
      (node (ref P1) (pin 6))
      (node (ref IC1) (pin 17)))
    (net (code 22) (name /MISO)
      (node (ref P1) (pin 5))
      (node (ref IC1) (pin 18)))
    (net (code 23) (name "")
      (node (ref R2) (pin 2))
      (node (ref D1) (pin 1)))
    (net (code 24) (name /TxD)
      (node (ref K1) (pin 3))
      (node (ref R3) (pin 1))
      (node (ref IC1) (pin 3)))
    (net (code 25) (name "")
      (node (ref D2) (pin 1))
      (node (ref R3) (pin 2)))
    (net (code 26) (name /Pin4)
      (node (ref P4) (pin 1))
      (node (ref IC1) (pin 4)))
    (net (code 27) (name /RxD)
      (node (ref K1) (pin 2))
      (node (ref R2) (pin 1))
      (node (ref IC1) (pin 2)))))