%!PS-Adobe-3.0
%%Creator: PCBNEW
%%CreationDate: Fri Aug 21 16:10:04 2015
%%Title: /home/max/av/!мое/паяние/kicad/atmega modules/mega board/megaboard-F_Cu.ps
%%Pages: 1
%%PageOrder: Ascend
%%BoundingBox: 0 0 842 1191
%%DocumentMedia: A3 842 1191 0 () ()
%%Orientation: Landscape
%%EndComments
%%BeginProlog
/line { newpath moveto lineto stroke } bind def
/cir0 { newpath 0 360 arc stroke } bind def
/cir1 { newpath 0 360 arc gsave fill grestore stroke } bind def
/cir2 { newpath 0 360 arc gsave fill grestore stroke } bind def
/arc0 { newpath arc stroke } bind def
/arc1 { newpath 4 index 4 index moveto arc closepath gsave fill
    grestore stroke } bind def
/arc2 { newpath 4 index 4 index moveto arc closepath gsave fill
    grestore stroke } bind def
/poly0 { stroke } bind def
/poly1 { closepath gsave fill grestore stroke } bind def
/poly2 { closepath gsave fill grestore stroke } bind def
/rect0 { rectstroke } bind def
/rect1 { rectfill } bind def
/rect2 { rectfill } bind def
/linemode0 { 0 setlinecap 0 setlinejoin 0 setlinewidth } bind def
/linemode1 { 1 setlinecap 1 setlinejoin } bind def
/dashedline { [200] 100 setdash } bind def
/solidline { [] 0 setdash } bind def
/phantomshow { moveto
    /KicadFont findfont 0.000001 scalefont setfont
    show } bind def
/textshow { gsave
    findfont exch scalefont setfont concat 1 scale 0 0 moveto show
    } bind def
/reencodefont {
  findfont dup length dict begin
  { 1 index /FID ne
    { def }
    { pop pop } ifelse
  } forall
  /Encoding ISOLatin1Encoding def
  currentdict
  end } bind def
/KicadFont /Helvetica reencodefont definefont pop
/KicadFont-Bold /Helvetica-Bold reencodefont definefont pop
/KicadFont-Oblique /Helvetica-Oblique reencodefont definefont pop
/KicadFont-BoldOblique /Helvetica-BoldOblique reencodefont definefont pop
%%EndProlog
%%Page: 1 1
%%BeginPageSetup
gsave
0.0072 0.0072 scale
linemode1
116930 0 translate 90 rotate
59.0551 setlinewidth
%%EndPageSetup
0 0 0 setrgbcolor
0 0 0 setrgbcolor
59.0551 setlinewidth
newpath
139134 70859.5 moveto
139134 71800.5 lineto
139666 71800.5 lineto
139666 70859.5 lineto
139134 70859.5 lineto
poly1
0 0 0 setrgbcolor
newpath
140134 70859.5 moveto
140134 71800.5 lineto
140666 71800.5 lineto
140666 70859.5 lineto
140134 70859.5 lineto
poly1
0 0 0 setrgbcolor
newpath
141134 70859.5 moveto
141134 71800.5 lineto
141666 71800.5 lineto
141666 70859.5 lineto
141134 70859.5 lineto
poly1
0 0 0 setrgbcolor
newpath
142134 70859.5 moveto
142134 71800.5 lineto
142666 71800.5 lineto
142666 70859.5 lineto
142134 70859.5 lineto
poly1
0 0 0 setrgbcolor
newpath
143134 70859.5 moveto
143134 71800.5 lineto
143666 71800.5 lineto
143666 70859.5 lineto
143134 70859.5 lineto
poly1
0 0 0 setrgbcolor
newpath
144134 70859.5 moveto
144134 71800.5 lineto
144666 71800.5 lineto
144666 70859.5 lineto
144134 70859.5 lineto
poly1
0 0 0 setrgbcolor
newpath
147730 69795.7 moveto
148670 69795.7 lineto
148670 69264.3 lineto
147730 69264.3 lineto
147730 69795.7 lineto
poly1
0 0 0 setrgbcolor
newpath
147730 68795.7 moveto
148670 68795.7 lineto
148670 68264.3 lineto
147730 68264.3 lineto
147730 68795.7 lineto
poly1
0 0 0 setrgbcolor
newpath
147730 67795.7 moveto
148670 67795.7 lineto
148670 67264.3 lineto
147730 67264.3 lineto
147730 67795.7 lineto
poly1
0 0 0 setrgbcolor
newpath
147730 66795.7 moveto
148670 66795.7 lineto
148670 66264.3 lineto
147730 66264.3 lineto
147730 66795.7 lineto
poly1
0 0 0 setrgbcolor
newpath
137666 53600.5 moveto
137666 52659.5 lineto
137134 52659.5 lineto
137134 53600.5 lineto
137666 53600.5 lineto
poly1
0 0 0 setrgbcolor
newpath
136666 53600.5 moveto
136666 52659.5 lineto
136134 52659.5 lineto
136134 53600.5 lineto
136666 53600.5 lineto
poly1
0 0 0 setrgbcolor
newpath
135666 53600.5 moveto
135666 52659.5 lineto
135134 52659.5 lineto
135134 53600.5 lineto
135666 53600.5 lineto
poly1
0 0 0 setrgbcolor
newpath
148766 53600.5 moveto
148766 52659.5 lineto
148234 52659.5 lineto
148234 53600.5 lineto
148766 53600.5 lineto
poly1
0 0 0 setrgbcolor
newpath
147766 53600.5 moveto
147766 52659.5 lineto
147234 52659.5 lineto
147234 53600.5 lineto
147766 53600.5 lineto
poly1
0 0 0 setrgbcolor
newpath
136070 56464.3 moveto
135130 56464.3 lineto
135130 56995.7 lineto
136070 56995.7 lineto
136070 56464.3 lineto
poly1
0 0 0 setrgbcolor
newpath
136070 57464.3 moveto
135130 57464.3 lineto
135130 57995.7 lineto
136070 57995.7 lineto
136070 57464.3 lineto
poly1
0 0 0 setrgbcolor
newpath
136070 58464.3 moveto
135130 58464.3 lineto
135130 58995.7 lineto
136070 58995.7 lineto
136070 58464.3 lineto
poly1
0 0 0 setrgbcolor
newpath
136070 59464.3 moveto
135130 59464.3 lineto
135130 59995.7 lineto
136070 59995.7 lineto
136070 59464.3 lineto
poly1
0 0 0 setrgbcolor
newpath
136070 60464.3 moveto
135130 60464.3 lineto
135130 60995.7 lineto
136070 60995.7 lineto
136070 60464.3 lineto
poly1
0 0 0 setrgbcolor
newpath
136070 61464.3 moveto
135130 61464.3 lineto
135130 61995.7 lineto
136070 61995.7 lineto
136070 61464.3 lineto
poly1
0 0 0 setrgbcolor
newpath
136070 62464.3 moveto
135130 62464.3 lineto
135130 62995.7 lineto
136070 62995.7 lineto
136070 62464.3 lineto
poly1
0 0 0 setrgbcolor
newpath
136070 63464.3 moveto
135130 63464.3 lineto
135130 63995.7 lineto
136070 63995.7 lineto
136070 63464.3 lineto
poly1
0 0 0 setrgbcolor
newpath
136070 64464.3 moveto
135130 64464.3 lineto
135130 64995.7 lineto
136070 64995.7 lineto
136070 64464.3 lineto
poly1
0 0 0 setrgbcolor
newpath
136070 65464.3 moveto
135130 65464.3 lineto
135130 65995.7 lineto
136070 65995.7 lineto
136070 65464.3 lineto
poly1
0 0 0 setrgbcolor
newpath
136070 66464.3 moveto
135130 66464.3 lineto
135130 66995.7 lineto
136070 66995.7 lineto
136070 66464.3 lineto
poly1
0 0 0 setrgbcolor
newpath
136070 67464.3 moveto
135130 67464.3 lineto
135130 67995.7 lineto
136070 67995.7 lineto
136070 67464.3 lineto
poly1
0 0 0 setrgbcolor
newpath
136070 68464.3 moveto
135130 68464.3 lineto
135130 68995.7 lineto
136070 68995.7 lineto
136070 68464.3 lineto
poly1
0 0 0 setrgbcolor
newpath
148670 55464.3 moveto
147730 55464.3 lineto
147730 55995.7 lineto
148670 55995.7 lineto
148670 55464.3 lineto
poly1
0 0 0 setrgbcolor
newpath
148670 56464.3 moveto
147730 56464.3 lineto
147730 56995.7 lineto
148670 56995.7 lineto
148670 56464.3 lineto
poly1
0 0 0 setrgbcolor
newpath
148670 57464.3 moveto
147730 57464.3 lineto
147730 57995.7 lineto
148670 57995.7 lineto
148670 57464.3 lineto
poly1
0 0 0 setrgbcolor
newpath
148670 58464.3 moveto
147730 58464.3 lineto
147730 58995.7 lineto
148670 58995.7 lineto
148670 58464.3 lineto
poly1
0 0 0 setrgbcolor
newpath
148670 59464.3 moveto
147730 59464.3 lineto
147730 59995.7 lineto
148670 59995.7 lineto
148670 59464.3 lineto
poly1
0 0 0 setrgbcolor
newpath
148670 60464.3 moveto
147730 60464.3 lineto
147730 60995.7 lineto
148670 60995.7 lineto
148670 60464.3 lineto
poly1
0 0 0 setrgbcolor
newpath
148670 61464.3 moveto
147730 61464.3 lineto
147730 61995.7 lineto
148670 61995.7 lineto
148670 61464.3 lineto
poly1
0 0 0 setrgbcolor
newpath
148670 62464.3 moveto
147730 62464.3 lineto
147730 62995.7 lineto
148670 62995.7 lineto
148670 62464.3 lineto
poly1
0 0 0 setrgbcolor
newpath
148670 63464.3 moveto
147730 63464.3 lineto
147730 63995.7 lineto
148670 63995.7 lineto
148670 63464.3 lineto
poly1
0 0 0 setrgbcolor
newpath
148670 64464.3 moveto
147730 64464.3 lineto
147730 64995.7 lineto
148670 64995.7 lineto
148670 64464.3 lineto
poly1
0 0 0 setrgbcolor
newpath
140270 55464.3 moveto
139330 55464.3 lineto
139330 55995.7 lineto
140270 55995.7 lineto
140270 55464.3 lineto
poly1
0 0 0 setrgbcolor
newpath
140270 56464.3 moveto
139330 56464.3 lineto
139330 56995.7 lineto
140270 56995.7 lineto
140270 56464.3 lineto
poly1
0 0 0 setrgbcolor
newpath
140270 57464.3 moveto
139330 57464.3 lineto
139330 57995.7 lineto
140270 57995.7 lineto
140270 57464.3 lineto
poly1
0 0 0 setrgbcolor
newpath
140270 58464.3 moveto
139330 58464.3 lineto
139330 58995.7 lineto
140270 58995.7 lineto
140270 58464.3 lineto
poly1
0 0 0 setrgbcolor
newpath
140270 59464.3 moveto
139330 59464.3 lineto
139330 59995.7 lineto
140270 59995.7 lineto
140270 59464.3 lineto
poly1
0 0 0 setrgbcolor
newpath
140270 60464.3 moveto
139330 60464.3 lineto
139330 60995.7 lineto
140270 60995.7 lineto
140270 60464.3 lineto
poly1
0 0 0 setrgbcolor
newpath
140270 61464.3 moveto
139330 61464.3 lineto
139330 61995.7 lineto
140270 61995.7 lineto
140270 61464.3 lineto
poly1
0 0 0 setrgbcolor
newpath
140270 62464.3 moveto
139330 62464.3 lineto
139330 62995.7 lineto
140270 62995.7 lineto
140270 62464.3 lineto
poly1
0 0 0 setrgbcolor
newpath
140270 63464.3 moveto
139330 63464.3 lineto
139330 63995.7 lineto
140270 63995.7 lineto
140270 63464.3 lineto
poly1
0 0 0 setrgbcolor
newpath
140270 64464.3 moveto
139330 64464.3 lineto
139330 64995.7 lineto
140270 64995.7 lineto
140270 64464.3 lineto
poly1
0 0 0 setrgbcolor
newpath
140270 65464.3 moveto
139330 65464.3 lineto
139330 65995.7 lineto
140270 65995.7 lineto
140270 65464.3 lineto
poly1
0 0 0 setrgbcolor
newpath
140270 66464.3 moveto
139330 66464.3 lineto
139330 66995.7 lineto
140270 66995.7 lineto
140270 66464.3 lineto
poly1
0 0 0 setrgbcolor
newpath
140270 67464.3 moveto
139330 67464.3 lineto
139330 67995.7 lineto
140270 67995.7 lineto
140270 67464.3 lineto
poly1
0 0 0 setrgbcolor
newpath
140270 68464.3 moveto
139330 68464.3 lineto
139330 68995.7 lineto
140270 68995.7 lineto
140270 68464.3 lineto
poly1
0 0 0 setrgbcolor
newpath
144770 68464.3 moveto
143830 68464.3 lineto
143830 68995.7 lineto
144770 68995.7 lineto
144770 68464.3 lineto
poly1
0 0 0 setrgbcolor
newpath
144770 67464.3 moveto
143830 67464.3 lineto
143830 67995.7 lineto
144770 67995.7 lineto
144770 67464.3 lineto
poly1
0 0 0 setrgbcolor
newpath
144770 66464.3 moveto
143830 66464.3 lineto
143830 66995.7 lineto
144770 66995.7 lineto
144770 66464.3 lineto
poly1
0 0 0 setrgbcolor
newpath
144770 65464.3 moveto
143830 65464.3 lineto
143830 65995.7 lineto
144770 65995.7 lineto
144770 65464.3 lineto
poly1
0 0 0 setrgbcolor
newpath
144770 64464.3 moveto
143830 64464.3 lineto
143830 64995.7 lineto
144770 64995.7 lineto
144770 64464.3 lineto
poly1
0 0 0 setrgbcolor
newpath
144770 63464.3 moveto
143830 63464.3 lineto
143830 63995.7 lineto
144770 63995.7 lineto
144770 63464.3 lineto
poly1
0 0 0 setrgbcolor
newpath
144770 62464.3 moveto
143830 62464.3 lineto
143830 62995.7 lineto
144770 62995.7 lineto
144770 62464.3 lineto
poly1
0 0 0 setrgbcolor
newpath
144770 61464.3 moveto
143830 61464.3 lineto
143830 61995.7 lineto
144770 61995.7 lineto
144770 61464.3 lineto
poly1
0 0 0 setrgbcolor
newpath
144770 60464.3 moveto
143830 60464.3 lineto
143830 60995.7 lineto
144770 60995.7 lineto
144770 60464.3 lineto
poly1
0 0 0 setrgbcolor
newpath
144770 59464.3 moveto
143830 59464.3 lineto
143830 59995.7 lineto
144770 59995.7 lineto
144770 59464.3 lineto
poly1
0 0 0 setrgbcolor
newpath
144770 58464.3 moveto
143830 58464.3 lineto
143830 58995.7 lineto
144770 58995.7 lineto
144770 58464.3 lineto
poly1
0 0 0 setrgbcolor
newpath
144770 57464.3 moveto
143830 57464.3 lineto
143830 57995.7 lineto
144770 57995.7 lineto
144770 57464.3 lineto
poly1
0 0 0 setrgbcolor
newpath
144770 56464.3 moveto
143830 56464.3 lineto
143830 56995.7 lineto
144770 56995.7 lineto
144770 56464.3 lineto
poly1
0 0 0 setrgbcolor
newpath
144770 55464.3 moveto
143830 55464.3 lineto
143830 55995.7 lineto
144770 55995.7 lineto
144770 55464.3 lineto
poly1
showpage
grestore
%%EOF
