EESchema Schematic File Version 2
LIBS:power
LIBS:device
LIBS:transistors
LIBS:conn
LIBS:linear
LIBS:regul
LIBS:74xx
LIBS:cmos4000
LIBS:adc-dac
LIBS:memory
LIBS:xilinx
LIBS:special
LIBS:microcontrollers
LIBS:dsp
LIBS:microchip
LIBS:analog_switches
LIBS:motorola
LIBS:texas
LIBS:intel
LIBS:audio
LIBS:interface
LIBS:digital-audio
LIBS:philips
LIBS:display
LIBS:cypress
LIBS:siliconi
LIBS:opto
LIBS:atmel
LIBS:contrib
LIBS:valves
LIBS:megaboard-cache
EELAYER 27 0
EELAYER END
$Descr A4 11693 8268
encoding utf-8
Sheet 1 1
Title ""
Date "21 aug 2015"
Rev ""
Comp ""
Comment1 ""
Comment2 ""
Comment3 ""
Comment4 ""
$EndDescr
$Comp
L ATMEGA8-P IC1
U 1 1 55CC2B5F
P 5100 3900
F 0 "IC1" H 4350 5200 40  0000 L BNN
F 1 "ATMEGA8-P" H 5600 2450 40  0000 L BNN
F 2 "DIL28" H 5100 3900 30  0000 C CIN
F 3 "" H 5100 3900 60  0000 C CNN
	1    5100 3900
	1    0    0    -1  
$EndComp
$Comp
L R R1
U 1 1 55CC2CD5
P 4000 2550
F 0 "R1" V 4080 2550 40  0000 C CNN
F 1 "10k" V 4007 2551 40  0000 C CNN
F 2 "~" V 3930 2550 30  0000 C CNN
F 3 "~" H 4000 2550 30  0000 C CNN
	1    4000 2550
	1    0    0    -1  
$EndComp
$Comp
L CONN_6 P1
U 1 1 55D30B10
P 1650 3550
F 0 "P1" V 1600 3550 60  0000 C CNN
F 1 "CONN_PROG" V 1700 3550 60  0000 C CNN
F 2 "" H 1650 3550 60  0000 C CNN
F 3 "" H 1650 3550 60  0000 C CNN
	1    1650 3550
	1    0    0    -1  
$EndComp
$Comp
L GND #PWR01
U 1 1 55D30BEA
P 1150 4100
F 0 "#PWR01" H 1150 4100 30  0001 C CNN
F 1 "GND" H 1150 4030 30  0001 C CNN
F 2 "" H 1150 4100 60  0000 C CNN
F 3 "" H 1150 4100 60  0000 C CNN
	1    1150 4100
	1    0    0    -1  
$EndComp
$Comp
L VCC #PWR02
U 1 1 55D30C0D
P 1050 3100
F 0 "#PWR02" H 1050 3200 30  0001 C CNN
F 1 "VCC" H 1050 3200 30  0000 C CNN
F 2 "" H 1050 3100 60  0000 C CNN
F 3 "" H 1050 3100 60  0000 C CNN
	1    1050 3100
	1    0    0    -1  
$EndComp
Text Label 3750 2800 2    60   ~ 0
RESET
Text Label 6300 3300 0    60   ~ 0
SCK
Text Label 6300 3200 0    60   ~ 0
MISO
Text Label 6300 3100 0    60   ~ 0
MOSI
Text Label 950  3500 2    60   ~ 0
RESET
Text Label 950  3600 2    60   ~ 0
SCK
Text Label 950  3700 2    60   ~ 0
MISO
Text Label 950  3800 2    60   ~ 0
MOSI
$Comp
L VCC #PWR03
U 1 1 55D30DC6
P 5100 2300
F 0 "#PWR03" H 5100 2400 30  0001 C CNN
F 1 "VCC" H 5100 2400 30  0000 C CNN
F 2 "" H 5100 2300 60  0000 C CNN
F 3 "" H 5100 2300 60  0000 C CNN
	1    5100 2300
	1    0    0    -1  
$EndComp
$Comp
L VCC #PWR04
U 1 1 55D30DDA
P 4000 2200
F 0 "#PWR04" H 4000 2300 30  0001 C CNN
F 1 "VCC" H 4000 2300 30  0000 C CNN
F 2 "" H 4000 2200 60  0000 C CNN
F 3 "" H 4000 2200 60  0000 C CNN
	1    4000 2200
	1    0    0    -1  
$EndComp
$Comp
L GND #PWR05
U 1 1 55D30DEF
P 5100 5500
F 0 "#PWR05" H 5100 5500 30  0001 C CNN
F 1 "GND" H 5100 5430 30  0001 C CNN
F 2 "" H 5100 5500 60  0000 C CNN
F 3 "" H 5100 5500 60  0000 C CNN
	1    5100 5500
	1    0    0    -1  
$EndComp
$Comp
L GND #PWR06
U 1 1 55D30E05
P 4100 3300
F 0 "#PWR06" H 4100 3300 30  0001 C CNN
F 1 "GND" H 4100 3230 30  0001 C CNN
F 2 "" H 4100 3300 60  0000 C CNN
F 3 "" H 4100 3300 60  0000 C CNN
	1    4100 3300
	1    0    0    -1  
$EndComp
Wire Wire Line
	1300 3300 1150 3300
Wire Wire Line
	1150 3300 1150 4100
Wire Wire Line
	1300 3400 1050 3400
Wire Wire Line
	1050 3400 1050 3100
Wire Wire Line
	4200 2800 3750 2800
Wire Wire Line
	6300 3300 6100 3300
Wire Wire Line
	6300 3200 6100 3200
Wire Wire Line
	6300 3100 6100 3100
Wire Wire Line
	950  3500 1300 3500
Wire Wire Line
	950  3600 1300 3600
Wire Wire Line
	950  3700 1300 3700
Wire Wire Line
	950  3800 1300 3800
Connection ~ 4000 2800
Wire Wire Line
	5100 2300 5100 2500
Wire Wire Line
	4000 2200 4000 2300
Wire Wire Line
	5100 5400 5100 5500
Wire Wire Line
	4200 3200 4100 3200
Wire Wire Line
	4100 3200 4100 3300
$Comp
L VCC #PWR07
U 1 1 55D30E2F
P 4100 2950
F 0 "#PWR07" H 4100 3050 30  0001 C CNN
F 1 "VCC" H 4100 3050 30  0000 C CNN
F 2 "" H 4100 2950 60  0000 C CNN
F 3 "" H 4100 2950 60  0000 C CNN
	1    4100 2950
	1    0    0    -1  
$EndComp
Wire Wire Line
	4100 2950 4100 3100
Wire Wire Line
	4100 3000 4200 3000
Wire Wire Line
	4100 3100 4200 3100
Connection ~ 4100 3000
$Comp
L CONN_3 K1
U 1 1 55D30E61
P 1650 4650
F 0 "K1" V 1600 4650 50  0000 C CNN
F 1 "CONN_UART" V 1700 4650 40  0000 C CNN
F 2 "" H 1650 4650 60  0000 C CNN
F 3 "" H 1650 4650 60  0000 C CNN
	1    1650 4650
	1    0    0    -1  
$EndComp
Text Label 950  4650 2    60   ~ 0
RxD
Text Label 6800 4300 0    60   ~ 0
TxD
$Comp
L GND #PWR08
U 1 1 55D30F0B
P 1150 4900
F 0 "#PWR08" H 1150 4900 30  0001 C CNN
F 1 "GND" H 1150 4830 30  0001 C CNN
F 2 "" H 1150 4900 60  0000 C CNN
F 3 "" H 1150 4900 60  0000 C CNN
	1    1150 4900
	1    0    0    -1  
$EndComp
Wire Wire Line
	1300 4550 1150 4550
Wire Wire Line
	1150 4550 1150 4900
Text Label 6800 4200 0    60   ~ 0
RxD
Text Label 950  4750 2    60   ~ 0
TxD
Wire Wire Line
	1300 4650 950  4650
Wire Wire Line
	1300 4750 950  4750
Wire Wire Line
	6800 4200 6100 4200
Wire Wire Line
	6800 4300 6100 4300
$Comp
L R R3
U 1 1 55D3146C
P 6700 5400
F 0 "R3" V 6780 5400 40  0000 C CNN
F 1 "10k" V 6707 5401 40  0000 C CNN
F 2 "~" V 6630 5400 30  0000 C CNN
F 3 "~" H 6700 5400 30  0000 C CNN
	1    6700 5400
	1    0    0    -1  
$EndComp
Connection ~ 6700 4300
$Comp
L R R2
U 1 1 55D31472
P 6500 5400
F 0 "R2" V 6580 5400 40  0000 C CNN
F 1 "10k" V 6507 5401 40  0000 C CNN
F 2 "~" V 6430 5400 30  0000 C CNN
F 3 "~" H 6500 5400 30  0000 C CNN
	1    6500 5400
	1    0    0    -1  
$EndComp
Connection ~ 6500 4200
$Comp
L LED D2
U 1 1 55D314AB
P 6700 5950
F 0 "D2" H 6700 6050 50  0000 C CNN
F 1 "LED" H 6700 5850 50  0000 C CNN
F 2 "~" H 6700 5950 60  0000 C CNN
F 3 "~" H 6700 5950 60  0000 C CNN
	1    6700 5950
	0    1    1    0   
$EndComp
$Comp
L LED D1
U 1 1 55D314B8
P 6500 5950
F 0 "D1" H 6500 6050 50  0000 C CNN
F 1 "LED" H 6500 5850 50  0000 C CNN
F 2 "~" H 6500 5950 60  0000 C CNN
F 3 "~" H 6500 5950 60  0000 C CNN
	1    6500 5950
	0    1    1    0   
$EndComp
Wire Wire Line
	6700 5650 6700 5750
$Comp
L GND #PWR09
U 1 1 55D314FD
P 6700 6350
F 0 "#PWR09" H 6700 6350 30  0001 C CNN
F 1 "GND" H 6700 6280 30  0001 C CNN
F 2 "" H 6700 6350 60  0000 C CNN
F 3 "" H 6700 6350 60  0000 C CNN
	1    6700 6350
	1    0    0    -1  
$EndComp
$Comp
L GND #PWR010
U 1 1 55D31503
P 6500 6350
F 0 "#PWR010" H 6500 6350 30  0001 C CNN
F 1 "GND" H 6500 6280 30  0001 C CNN
F 2 "" H 6500 6350 60  0000 C CNN
F 3 "" H 6500 6350 60  0000 C CNN
	1    6500 6350
	1    0    0    -1  
$EndComp
Wire Wire Line
	6700 6150 6700 6350
Wire Wire Line
	6500 6150 6500 6350
Wire Wire Line
	6700 5150 6700 4300
Wire Wire Line
	6500 5650 6500 5750
Wire Wire Line
	6500 5150 6500 4200
$Comp
L CONN_13 P4
U 1 1 55D3EA49
P 3450 3650
F 0 "P4" V 3410 3650 60  0000 C CNN
F 1 "CONN_13" V 3520 3650 60  0000 C CNN
F 2 "" H 3450 3650 60  0000 C CNN
F 3 "" H 3450 3650 60  0000 C CNN
	1    3450 3650
	1    0    0    -1  
$EndComp
Text Label 2900 3050 2    60   ~ 0
Pin4
Wire Wire Line
	2900 3050 3100 3050
Text Label 7050 4400 0    60   ~ 0
Pin4
Wire Wire Line
	7050 4400 6100 4400
Text Label 2900 3150 2    60   ~ 0
Pin5
Text Label 2900 3250 2    60   ~ 0
Pin6
Text Label 2900 3550 2    60   ~ 0
Pin9
Text Label 2900 3650 2    60   ~ 0
Pin10
Text Label 2900 3750 2    60   ~ 0
Pin11
Text Label 2900 3850 2    60   ~ 0
Pin12
Text Label 2900 3950 2    60   ~ 0
Pin13
Text Label 2900 4050 2    60   ~ 0
Pin14
$Comp
L VCC #PWR011
U 1 1 55D3EB97
P 2550 3300
F 0 "#PWR011" H 2550 3400 30  0001 C CNN
F 1 "VCC" H 2550 3400 30  0000 C CNN
F 2 "" H 2550 3300 60  0000 C CNN
F 3 "" H 2550 3300 60  0000 C CNN
	1    2550 3300
	1    0    0    -1  
$EndComp
Wire Wire Line
	2900 3150 3100 3150
Wire Wire Line
	2900 3250 3100 3250
Wire Wire Line
	2550 3300 2550 3350
Wire Wire Line
	2550 3350 3100 3350
Wire Wire Line
	2900 3550 3100 3550
Wire Wire Line
	2900 3650 3100 3650
Wire Wire Line
	2900 3750 3100 3750
Wire Wire Line
	2900 3850 3100 3850
Wire Wire Line
	2900 3950 3100 3950
Wire Wire Line
	2900 4050 3100 4050
$Comp
L GND #PWR012
U 1 1 55D3ED2B
P 2550 3600
F 0 "#PWR012" H 2550 3600 30  0001 C CNN
F 1 "GND" H 2550 3530 30  0001 C CNN
F 2 "" H 2550 3600 60  0000 C CNN
F 3 "" H 2550 3600 60  0000 C CNN
	1    2550 3600
	1    0    0    -1  
$EndComp
Wire Wire Line
	3100 3450 2550 3450
Wire Wire Line
	2550 3450 2550 3600
$Comp
L GND #PWR013
U 1 1 55D3ED62
P 2550 4350
F 0 "#PWR013" H 2550 4350 30  0001 C CNN
F 1 "GND" H 2550 4280 30  0001 C CNN
F 2 "" H 2550 4350 60  0000 C CNN
F 3 "" H 2550 4350 60  0000 C CNN
	1    2550 4350
	1    0    0    -1  
$EndComp
$Comp
L VCC #PWR014
U 1 1 55D3ED9B
P 2550 4050
F 0 "#PWR014" H 2550 4150 30  0001 C CNN
F 1 "VCC" H 2550 4150 30  0000 C CNN
F 2 "" H 2550 4050 60  0000 C CNN
F 3 "" H 2550 4050 60  0000 C CNN
	1    2550 4050
	1    0    0    -1  
$EndComp
Text Label 7050 4500 0    60   ~ 0
Pin5
Wire Wire Line
	7050 4500 6100 4500
Text Label 7050 4600 0    60   ~ 0
Pin6
Wire Wire Line
	7050 4600 6100 4600
Text Label 4050 3500 2    60   ~ 0
Pin9
Wire Wire Line
	4200 3500 4050 3500
Text Label 4050 3700 2    60   ~ 0
Pin10
Wire Wire Line
	4200 3700 4050 3700
Text Label 7050 4700 0    60   ~ 0
Pin11
Wire Wire Line
	7050 4700 6100 4700
Text Label 7050 4800 0    60   ~ 0
Pin12
Wire Wire Line
	7050 4800 6100 4800
Text Label 7050 4900 0    60   ~ 0
Pin13
Wire Wire Line
	7050 4900 6100 4900
$Comp
L CONN_10 P5
U 1 1 55D3EFE4
P 3500 5250
F 0 "P5" V 3450 5250 60  0000 C CNN
F 1 "CONN_10" V 3550 5250 60  0000 C CNN
F 2 "" H 3500 5250 60  0000 C CNN
F 3 "" H 3500 5250 60  0000 C CNN
	1    3500 5250
	1    0    0    -1  
$EndComp
$Comp
L GND #PWR015
U 1 1 55D3EFF1
P 2550 5000
F 0 "#PWR015" H 2550 5000 30  0001 C CNN
F 1 "GND" H 2550 4930 30  0001 C CNN
F 2 "" H 2550 5000 60  0000 C CNN
F 3 "" H 2550 5000 60  0000 C CNN
	1    2550 5000
	1    0    0    -1  
$EndComp
Wire Wire Line
	3150 4800 2550 4800
Wire Wire Line
	2550 4800 2550 5000
$Comp
L VCC #PWR016
U 1 1 55D3F045
P 2500 4700
F 0 "#PWR016" H 2500 4800 30  0001 C CNN
F 1 "VCC" H 2500 4800 30  0000 C CNN
F 2 "" H 2500 4700 60  0000 C CNN
F 3 "" H 2500 4700 60  0000 C CNN
	1    2500 4700
	1    0    0    -1  
$EndComp
Wire Wire Line
	3150 4900 2500 4900
Wire Wire Line
	2500 4900 2500 4700
Text Label 2900 5000 2    60   ~ 0
Pin28
Text Label 2900 5100 2    60   ~ 0
Pin27
Text Label 2900 5200 2    60   ~ 0
Pin26
Text Label 2900 5300 2    60   ~ 0
Pin25
Text Label 2900 5400 2    60   ~ 0
Pin24
Text Label 2900 5500 2    60   ~ 0
Pin23
$Comp
L GND #PWR017
U 1 1 55D3F0B7
P 2550 5800
F 0 "#PWR017" H 2550 5800 30  0001 C CNN
F 1 "GND" H 2550 5730 30  0001 C CNN
F 2 "" H 2550 5800 60  0000 C CNN
F 3 "" H 2550 5800 60  0000 C CNN
	1    2550 5800
	1    0    0    -1  
$EndComp
Wire Wire Line
	3150 5600 2550 5600
Wire Wire Line
	2550 5600 2550 5800
$Comp
L VCC #PWR018
U 1 1 55D3F101
P 2500 5450
F 0 "#PWR018" H 2500 5550 30  0001 C CNN
F 1 "VCC" H 2500 5550 30  0000 C CNN
F 2 "" H 2500 5450 60  0000 C CNN
F 3 "" H 2500 5450 60  0000 C CNN
	1    2500 5450
	1    0    0    -1  
$EndComp
Wire Wire Line
	3150 5700 2500 5700
Wire Wire Line
	2500 5700 2500 5450
Wire Wire Line
	2900 5000 3150 5000
Wire Wire Line
	3150 5100 2900 5100
Wire Wire Line
	3150 5200 2900 5200
Wire Wire Line
	3150 5300 2900 5300
Wire Wire Line
	3150 5400 2900 5400
Wire Wire Line
	3150 5500 2900 5500
Text Label 7050 4000 0    60   ~ 0
Pin28
Wire Wire Line
	7050 4000 6100 4000
Text Label 7050 3900 0    60   ~ 0
Pin27
Wire Wire Line
	7050 3900 6100 3900
Text Label 7050 3800 0    60   ~ 0
Pin26
Wire Wire Line
	7050 3800 6100 3800
Text Label 7050 3700 0    60   ~ 0
Pin25
Wire Wire Line
	7050 3700 6100 3700
Text Label 7050 3600 0    60   ~ 0
Pin24
Wire Wire Line
	7050 3600 6100 3600
Text Label 7050 3500 0    60   ~ 0
Pin23
Wire Wire Line
	7050 3500 6100 3500
$Comp
L CONN_4 P2
U 1 1 55D3F58C
P 1650 5800
F 0 "P2" V 1600 5800 50  0000 C CNN
F 1 "CONN_4" V 1700 5800 50  0000 C CNN
F 2 "" H 1650 5800 60  0000 C CNN
F 3 "" H 1650 5800 60  0000 C CNN
	1    1650 5800
	1    0    0    -1  
$EndComp
$Comp
L GND #PWR019
U 1 1 55D3F599
P 900 6050
F 0 "#PWR019" H 900 6050 30  0001 C CNN
F 1 "GND" H 900 5980 30  0001 C CNN
F 2 "" H 900 6050 60  0000 C CNN
F 3 "" H 900 6050 60  0000 C CNN
	1    900  6050
	1    0    0    -1  
$EndComp
Text Label 1100 5650 2    60   ~ 0
Pin15
Text Label 1100 5750 2    60   ~ 0
Pin16
Wire Wire Line
	1300 5650 1100 5650
Wire Wire Line
	1300 5750 1100 5750
Wire Wire Line
	1300 5850 900  5850
Wire Wire Line
	900  5850 900  6050
$Comp
L VCC #PWR020
U 1 1 55D3F698
P 750 5700
F 0 "#PWR020" H 750 5800 30  0001 C CNN
F 1 "VCC" H 750 5800 30  0000 C CNN
F 2 "" H 750 5700 60  0000 C CNN
F 3 "" H 750 5700 60  0000 C CNN
	1    750  5700
	1    0    0    -1  
$EndComp
Wire Wire Line
	1300 5950 750  5950
Wire Wire Line
	750  5950 750  5700
Text Label 7050 2900 0    60   ~ 0
Pin15
Wire Wire Line
	7050 2900 6100 2900
Text Label 7050 2800 0    60   ~ 0
Pin14
Wire Wire Line
	7050 2800 6100 2800
Text Label 7050 3000 0    60   ~ 0
Pin16
Wire Wire Line
	7050 3000 6100 3000
$Comp
L CONN_2 P3
U 1 1 55D6B951
P 2050 2100
F 0 "P3" V 2000 2100 40  0000 C CNN
F 1 "CONN_VCC" V 2100 2100 40  0000 C CNN
F 2 "" H 2050 2100 60  0000 C CNN
F 3 "" H 2050 2100 60  0000 C CNN
	1    2050 2100
	1    0    0    -1  
$EndComp
$Comp
L VCC #PWR021
U 1 1 55D6B9BE
P 1500 1850
F 0 "#PWR021" H 1500 1950 30  0001 C CNN
F 1 "VCC" H 1500 1950 30  0000 C CNN
F 2 "" H 1500 1850 60  0000 C CNN
F 3 "" H 1500 1850 60  0000 C CNN
	1    1500 1850
	1    0    0    -1  
$EndComp
Wire Wire Line
	1150 2000 1700 2000
Wire Wire Line
	1500 2000 1500 1850
$Comp
L GND #PWR022
U 1 1 55D6BA1F
P 1500 2350
F 0 "#PWR022" H 1500 2350 30  0001 C CNN
F 1 "GND" H 1500 2280 30  0001 C CNN
F 2 "" H 1500 2350 60  0000 C CNN
F 3 "" H 1500 2350 60  0000 C CNN
	1    1500 2350
	1    0    0    -1  
$EndComp
Wire Wire Line
	850  2200 1700 2200
Wire Wire Line
	1500 2200 1500 2350
$Comp
L PWR_FLAG #FLG023
U 1 1 55D6BA84
P 1150 1900
F 0 "#FLG023" H 1150 1995 30  0001 C CNN
F 1 "PWR_FLAG" H 1150 2080 30  0000 C CNN
F 2 "" H 1150 1900 60  0000 C CNN
F 3 "" H 1150 1900 60  0000 C CNN
	1    1150 1900
	1    0    0    -1  
$EndComp
$Comp
L PWR_FLAG #FLG024
U 1 1 55D6BA91
P 850 1900
F 0 "#FLG024" H 850 1995 30  0001 C CNN
F 1 "PWR_FLAG" H 850 2080 30  0000 C CNN
F 2 "" H 850 1900 60  0000 C CNN
F 3 "" H 850 1900 60  0000 C CNN
	1    850  1900
	1    0    0    -1  
$EndComp
Wire Wire Line
	1150 1900 1150 2000
Connection ~ 1500 2000
Wire Wire Line
	850  1900 850  2200
Connection ~ 1500 2200
Wire Wire Line
	3100 4250 2550 4250
Wire Wire Line
	2550 4250 2550 4350
Wire Wire Line
	3100 4150 2550 4150
Wire Wire Line
	2550 4150 2550 4050
$EndSCHEMATC
