%!PS-Adobe-3.0
%%Creator: PCBNEW
%%CreationDate: Fri Aug 21 16:10:42 2015
%%Title: /home/max/av/!мое/паяние/kicad/atmega modules/mega board/megaboard-B_Cu.ps
%%Pages: 1
%%PageOrder: Ascend
%%BoundingBox: 0 0 842 1191
%%DocumentMedia: A3 842 1191 0 () ()
%%Orientation: Landscape
%%EndComments
%%BeginProlog
/line { newpath moveto lineto stroke } bind def
/cir0 { newpath 0 360 arc stroke } bind def
/cir1 { newpath 0 360 arc gsave fill grestore stroke } bind def
/cir2 { newpath 0 360 arc gsave fill grestore stroke } bind def
/arc0 { newpath arc stroke } bind def
/arc1 { newpath 4 index 4 index moveto arc closepath gsave fill
    grestore stroke } bind def
/arc2 { newpath 4 index 4 index moveto arc closepath gsave fill
    grestore stroke } bind def
/poly0 { stroke } bind def
/poly1 { closepath gsave fill grestore stroke } bind def
/poly2 { closepath gsave fill grestore stroke } bind def
/rect0 { rectstroke } bind def
/rect1 { rectfill } bind def
/rect2 { rectfill } bind def
/linemode0 { 0 setlinecap 0 setlinejoin 0 setlinewidth } bind def
/linemode1 { 1 setlinecap 1 setlinejoin } bind def
/dashedline { [200] 100 setdash } bind def
/solidline { [] 0 setdash } bind def
/phantomshow { moveto
    /KicadFont findfont 0.000001 scalefont setfont
    show } bind def
/textshow { gsave
    findfont exch scalefont setfont concat 1 scale 0 0 moveto show
    } bind def
/reencodefont {
  findfont dup length dict begin
  { 1 index /FID ne
    { def }
    { pop pop } ifelse
  } forall
  /Encoding ISOLatin1Encoding def
  currentdict
  end } bind def
/KicadFont /Helvetica reencodefont definefont pop
/KicadFont-Bold /Helvetica-Bold reencodefont definefont pop
/KicadFont-Oblique /Helvetica-Oblique reencodefont definefont pop
/KicadFont-BoldOblique /Helvetica-BoldOblique reencodefont definefont pop
%%EndProlog
%%Page: 1 1
%%BeginPageSetup
gsave
0.0072 0.0072 scale
linemode1
116930 0 translate 90 rotate
59.0551 setlinewidth
%%EndPageSetup
0 0 0 setrgbcolor
0 0 0 setrgbcolor
59.0551 setlinewidth
newpath
141430 58750.5 moveto
142170 58750.5 lineto
142170 58209.5 lineto
141430 58209.5 lineto
141430 58750.5 lineto
poly1
0 0 0 setrgbcolor
newpath
141430 57450.5 moveto
142170 57450.5 lineto
142170 56909.5 lineto
141430 56909.5 lineto
141430 57450.5 lineto
poly1
0 0 0 setrgbcolor
newpath
135080 54259.5 moveto
135080 55000.5 lineto
135620 55000.5 lineto
135620 54259.5 lineto
135080 54259.5 lineto
poly1
0 0 0 setrgbcolor
newpath
136380 54259.5 moveto
136380 55000.5 lineto
136920 55000.5 lineto
136920 54259.5 lineto
136380 54259.5 lineto
poly1
0 0 0 setrgbcolor
newpath
143220 54600.5 moveto
143220 53859.5 lineto
142680 53859.5 lineto
142680 54600.5 lineto
143220 54600.5 lineto
poly1
0 0 0 setrgbcolor
newpath
141920 54600.5 moveto
141920 53859.5 lineto
141380 53859.5 lineto
141380 54600.5 lineto
141920 54600.5 lineto
poly1
0 0 0 setrgbcolor
newpath
138330 54550.5 moveto
139070 54550.5 lineto
139070 54009.5 lineto
138330 54009.5 lineto
138330 54550.5 lineto
poly1
0 0 0 setrgbcolor
newpath
138330 53250.5 moveto
139070 53250.5 lineto
139070 52709.5 lineto
138330 52709.5 lineto
138330 53250.5 lineto
poly1
0 0 0 setrgbcolor
newpath
139930 54550.5 moveto
140670 54550.5 lineto
140670 54009.5 lineto
139930 54009.5 lineto
139930 54550.5 lineto
poly1
0 0 0 setrgbcolor
newpath
139930 53250.5 moveto
140670 53250.5 lineto
140670 52709.5 lineto
139930 52709.5 lineto
139930 53250.5 lineto
poly1
0 0 0 setrgbcolor
newpath
139134 70859.5 moveto
139134 71800.5 lineto
139666 71800.5 lineto
139666 70859.5 lineto
139134 70859.5 lineto
poly1
0 0 0 setrgbcolor
newpath
140134 70859.5 moveto
140134 71800.5 lineto
140666 71800.5 lineto
140666 70859.5 lineto
140134 70859.5 lineto
poly1
0 0 0 setrgbcolor
newpath
141134 70859.5 moveto
141134 71800.5 lineto
141666 71800.5 lineto
141666 70859.5 lineto
141134 70859.5 lineto
poly1
0 0 0 setrgbcolor
newpath
142134 70859.5 moveto
142134 71800.5 lineto
142666 71800.5 lineto
142666 70859.5 lineto
142134 70859.5 lineto
poly1
0 0 0 setrgbcolor
newpath
143134 70859.5 moveto
143134 71800.5 lineto
143666 71800.5 lineto
143666 70859.5 lineto
143134 70859.5 lineto
poly1
0 0 0 setrgbcolor
newpath
144134 70859.5 moveto
144134 71800.5 lineto
144666 71800.5 lineto
144666 70859.5 lineto
144134 70859.5 lineto
poly1
0 0 0 setrgbcolor
newpath
147730 69795.7 moveto
148670 69795.7 lineto
148670 69264.3 lineto
147730 69264.3 lineto
147730 69795.7 lineto
poly1
0 0 0 setrgbcolor
newpath
147730 68795.7 moveto
148670 68795.7 lineto
148670 68264.3 lineto
147730 68264.3 lineto
147730 68795.7 lineto
poly1
0 0 0 setrgbcolor
newpath
147730 67795.7 moveto
148670 67795.7 lineto
148670 67264.3 lineto
147730 67264.3 lineto
147730 67795.7 lineto
poly1
0 0 0 setrgbcolor
newpath
147730 66795.7 moveto
148670 66795.7 lineto
148670 66264.3 lineto
147730 66264.3 lineto
147730 66795.7 lineto
poly1
0 0 0 setrgbcolor
newpath
137666 53600.5 moveto
137666 52659.5 lineto
137134 52659.5 lineto
137134 53600.5 lineto
137666 53600.5 lineto
poly1
0 0 0 setrgbcolor
newpath
136666 53600.5 moveto
136666 52659.5 lineto
136134 52659.5 lineto
136134 53600.5 lineto
136666 53600.5 lineto
poly1
0 0 0 setrgbcolor
newpath
135666 53600.5 moveto
135666 52659.5 lineto
135134 52659.5 lineto
135134 53600.5 lineto
135666 53600.5 lineto
poly1
0 0 0 setrgbcolor
newpath
148766 53600.5 moveto
148766 52659.5 lineto
148234 52659.5 lineto
148234 53600.5 lineto
148766 53600.5 lineto
poly1
0 0 0 setrgbcolor
newpath
147766 53600.5 moveto
147766 52659.5 lineto
147234 52659.5 lineto
147234 53600.5 lineto
147766 53600.5 lineto
poly1
0 0 0 setrgbcolor
newpath
136070 56464.3 moveto
135130 56464.3 lineto
135130 56995.7 lineto
136070 56995.7 lineto
136070 56464.3 lineto
poly1
0 0 0 setrgbcolor
newpath
136070 57464.3 moveto
135130 57464.3 lineto
135130 57995.7 lineto
136070 57995.7 lineto
136070 57464.3 lineto
poly1
0 0 0 setrgbcolor
newpath
136070 58464.3 moveto
135130 58464.3 lineto
135130 58995.7 lineto
136070 58995.7 lineto
136070 58464.3 lineto
poly1
0 0 0 setrgbcolor
newpath
136070 59464.3 moveto
135130 59464.3 lineto
135130 59995.7 lineto
136070 59995.7 lineto
136070 59464.3 lineto
poly1
0 0 0 setrgbcolor
newpath
136070 60464.3 moveto
135130 60464.3 lineto
135130 60995.7 lineto
136070 60995.7 lineto
136070 60464.3 lineto
poly1
0 0 0 setrgbcolor
newpath
136070 61464.3 moveto
135130 61464.3 lineto
135130 61995.7 lineto
136070 61995.7 lineto
136070 61464.3 lineto
poly1
0 0 0 setrgbcolor
newpath
136070 62464.3 moveto
135130 62464.3 lineto
135130 62995.7 lineto
136070 62995.7 lineto
136070 62464.3 lineto
poly1
0 0 0 setrgbcolor
newpath
136070 63464.3 moveto
135130 63464.3 lineto
135130 63995.7 lineto
136070 63995.7 lineto
136070 63464.3 lineto
poly1
0 0 0 setrgbcolor
newpath
136070 64464.3 moveto
135130 64464.3 lineto
135130 64995.7 lineto
136070 64995.7 lineto
136070 64464.3 lineto
poly1
0 0 0 setrgbcolor
newpath
136070 65464.3 moveto
135130 65464.3 lineto
135130 65995.7 lineto
136070 65995.7 lineto
136070 65464.3 lineto
poly1
0 0 0 setrgbcolor
newpath
136070 66464.3 moveto
135130 66464.3 lineto
135130 66995.7 lineto
136070 66995.7 lineto
136070 66464.3 lineto
poly1
0 0 0 setrgbcolor
newpath
136070 67464.3 moveto
135130 67464.3 lineto
135130 67995.7 lineto
136070 67995.7 lineto
136070 67464.3 lineto
poly1
0 0 0 setrgbcolor
newpath
136070 68464.3 moveto
135130 68464.3 lineto
135130 68995.7 lineto
136070 68995.7 lineto
136070 68464.3 lineto
poly1
0 0 0 setrgbcolor
newpath
148670 55464.3 moveto
147730 55464.3 lineto
147730 55995.7 lineto
148670 55995.7 lineto
148670 55464.3 lineto
poly1
0 0 0 setrgbcolor
newpath
148670 56464.3 moveto
147730 56464.3 lineto
147730 56995.7 lineto
148670 56995.7 lineto
148670 56464.3 lineto
poly1
0 0 0 setrgbcolor
newpath
148670 57464.3 moveto
147730 57464.3 lineto
147730 57995.7 lineto
148670 57995.7 lineto
148670 57464.3 lineto
poly1
0 0 0 setrgbcolor
newpath
148670 58464.3 moveto
147730 58464.3 lineto
147730 58995.7 lineto
148670 58995.7 lineto
148670 58464.3 lineto
poly1
0 0 0 setrgbcolor
newpath
148670 59464.3 moveto
147730 59464.3 lineto
147730 59995.7 lineto
148670 59995.7 lineto
148670 59464.3 lineto
poly1
0 0 0 setrgbcolor
newpath
148670 60464.3 moveto
147730 60464.3 lineto
147730 60995.7 lineto
148670 60995.7 lineto
148670 60464.3 lineto
poly1
0 0 0 setrgbcolor
newpath
148670 61464.3 moveto
147730 61464.3 lineto
147730 61995.7 lineto
148670 61995.7 lineto
148670 61464.3 lineto
poly1
0 0 0 setrgbcolor
newpath
148670 62464.3 moveto
147730 62464.3 lineto
147730 62995.7 lineto
148670 62995.7 lineto
148670 62464.3 lineto
poly1
0 0 0 setrgbcolor
newpath
148670 63464.3 moveto
147730 63464.3 lineto
147730 63995.7 lineto
148670 63995.7 lineto
148670 63464.3 lineto
poly1
0 0 0 setrgbcolor
newpath
148670 64464.3 moveto
147730 64464.3 lineto
147730 64995.7 lineto
148670 64995.7 lineto
148670 64464.3 lineto
poly1
0 0 0 setrgbcolor
newpath
140270 55464.3 moveto
139330 55464.3 lineto
139330 55995.7 lineto
140270 55995.7 lineto
140270 55464.3 lineto
poly1
0 0 0 setrgbcolor
newpath
140270 56464.3 moveto
139330 56464.3 lineto
139330 56995.7 lineto
140270 56995.7 lineto
140270 56464.3 lineto
poly1
0 0 0 setrgbcolor
newpath
140270 57464.3 moveto
139330 57464.3 lineto
139330 57995.7 lineto
140270 57995.7 lineto
140270 57464.3 lineto
poly1
0 0 0 setrgbcolor
newpath
140270 58464.3 moveto
139330 58464.3 lineto
139330 58995.7 lineto
140270 58995.7 lineto
140270 58464.3 lineto
poly1
0 0 0 setrgbcolor
newpath
140270 59464.3 moveto
139330 59464.3 lineto
139330 59995.7 lineto
140270 59995.7 lineto
140270 59464.3 lineto
poly1
0 0 0 setrgbcolor
newpath
140270 60464.3 moveto
139330 60464.3 lineto
139330 60995.7 lineto
140270 60995.7 lineto
140270 60464.3 lineto
poly1
0 0 0 setrgbcolor
newpath
140270 61464.3 moveto
139330 61464.3 lineto
139330 61995.7 lineto
140270 61995.7 lineto
140270 61464.3 lineto
poly1
0 0 0 setrgbcolor
newpath
140270 62464.3 moveto
139330 62464.3 lineto
139330 62995.7 lineto
140270 62995.7 lineto
140270 62464.3 lineto
poly1
0 0 0 setrgbcolor
newpath
140270 63464.3 moveto
139330 63464.3 lineto
139330 63995.7 lineto
140270 63995.7 lineto
140270 63464.3 lineto
poly1
0 0 0 setrgbcolor
newpath
140270 64464.3 moveto
139330 64464.3 lineto
139330 64995.7 lineto
140270 64995.7 lineto
140270 64464.3 lineto
poly1
0 0 0 setrgbcolor
newpath
140270 65464.3 moveto
139330 65464.3 lineto
139330 65995.7 lineto
140270 65995.7 lineto
140270 65464.3 lineto
poly1
0 0 0 setrgbcolor
newpath
140270 66464.3 moveto
139330 66464.3 lineto
139330 66995.7 lineto
140270 66995.7 lineto
140270 66464.3 lineto
poly1
0 0 0 setrgbcolor
newpath
140270 67464.3 moveto
139330 67464.3 lineto
139330 67995.7 lineto
140270 67995.7 lineto
140270 67464.3 lineto
poly1
0 0 0 setrgbcolor
newpath
140270 68464.3 moveto
139330 68464.3 lineto
139330 68995.7 lineto
140270 68995.7 lineto
140270 68464.3 lineto
poly1
0 0 0 setrgbcolor
newpath
144770 68464.3 moveto
143830 68464.3 lineto
143830 68995.7 lineto
144770 68995.7 lineto
144770 68464.3 lineto
poly1
0 0 0 setrgbcolor
newpath
144770 67464.3 moveto
143830 67464.3 lineto
143830 67995.7 lineto
144770 67995.7 lineto
144770 67464.3 lineto
poly1
0 0 0 setrgbcolor
newpath
144770 66464.3 moveto
143830 66464.3 lineto
143830 66995.7 lineto
144770 66995.7 lineto
144770 66464.3 lineto
poly1
0 0 0 setrgbcolor
newpath
144770 65464.3 moveto
143830 65464.3 lineto
143830 65995.7 lineto
144770 65995.7 lineto
144770 65464.3 lineto
poly1
0 0 0 setrgbcolor
newpath
144770 64464.3 moveto
143830 64464.3 lineto
143830 64995.7 lineto
144770 64995.7 lineto
144770 64464.3 lineto
poly1
0 0 0 setrgbcolor
newpath
144770 63464.3 moveto
143830 63464.3 lineto
143830 63995.7 lineto
144770 63995.7 lineto
144770 63464.3 lineto
poly1
0 0 0 setrgbcolor
newpath
144770 62464.3 moveto
143830 62464.3 lineto
143830 62995.7 lineto
144770 62995.7 lineto
144770 62464.3 lineto
poly1
0 0 0 setrgbcolor
newpath
144770 61464.3 moveto
143830 61464.3 lineto
143830 61995.7 lineto
144770 61995.7 lineto
144770 61464.3 lineto
poly1
0 0 0 setrgbcolor
newpath
144770 60464.3 moveto
143830 60464.3 lineto
143830 60995.7 lineto
144770 60995.7 lineto
144770 60464.3 lineto
poly1
0 0 0 setrgbcolor
newpath
144770 59464.3 moveto
143830 59464.3 lineto
143830 59995.7 lineto
144770 59995.7 lineto
144770 59464.3 lineto
poly1
0 0 0 setrgbcolor
newpath
144770 58464.3 moveto
143830 58464.3 lineto
143830 58995.7 lineto
144770 58995.7 lineto
144770 58464.3 lineto
poly1
0 0 0 setrgbcolor
newpath
144770 57464.3 moveto
143830 57464.3 lineto
143830 57995.7 lineto
144770 57995.7 lineto
144770 57464.3 lineto
poly1
0 0 0 setrgbcolor
newpath
144770 56464.3 moveto
143830 56464.3 lineto
143830 56995.7 lineto
144770 56995.7 lineto
144770 56464.3 lineto
poly1
0 0 0 setrgbcolor
newpath
144770 55464.3 moveto
143830 55464.3 lineto
143830 55995.7 lineto
144770 55995.7 lineto
144770 55464.3 lineto
poly1
0 0 0 setrgbcolor
200 setlinewidth
newpath
143400 71330 moveto
143400 70230 lineto
stroke
0 0 0 setrgbcolor
newpath
143400 65730 moveto
144300 65730 lineto
stroke
0 0 0 setrgbcolor
newpath
142900 66230 moveto
143400 65730 lineto
stroke
0 0 0 setrgbcolor
newpath
142900 69730 moveto
142900 66230 lineto
stroke
0 0 0 setrgbcolor
newpath
143400 70230 moveto
142900 69730 lineto
stroke
0 0 0 setrgbcolor
newpath
144400 70930 moveto
144400 70130 lineto
stroke
0 0 0 setrgbcolor
newpath
143600 66730 moveto
144300 66730 lineto
stroke
0 0 0 setrgbcolor
newpath
143400 66930 moveto
143600 66730 lineto
stroke
0 0 0 setrgbcolor
newpath
143400 69330 moveto
143400 66930 lineto
stroke
0 0 0 setrgbcolor
newpath
143600 69530 moveto
143400 69330 lineto
stroke
0 0 0 setrgbcolor
newpath
143800 69530 moveto
143600 69530 lineto
stroke
0 0 0 setrgbcolor
newpath
144400 70130 moveto
143800 69530 lineto
stroke
0 0 0 setrgbcolor
newpath
139800 64730 moveto
139000 64730 lineto
stroke
0 0 0 setrgbcolor
newpath
137000 62730 moveto
135600 62730 lineto
stroke
0 0 0 setrgbcolor
newpath
139000 64730 moveto
137000 62730 lineto
stroke
0 0 0 setrgbcolor
newpath
139800 65730 moveto
139000 65730 lineto
stroke
0 0 0 setrgbcolor
newpath
137000 63730 moveto
135600 63730 lineto
stroke
0 0 0 setrgbcolor
newpath
139000 65730 moveto
137000 63730 lineto
stroke
0 0 0 setrgbcolor
newpath
139800 66730 moveto
139000 66730 lineto
stroke
0 0 0 setrgbcolor
newpath
137000 64730 moveto
135600 64730 lineto
stroke
0 0 0 setrgbcolor
newpath
139000 66730 moveto
137000 64730 lineto
stroke
0 0 0 setrgbcolor
newpath
139800 67730 moveto
139000 67730 lineto
stroke
0 0 0 setrgbcolor
newpath
137000 65730 moveto
135600 65730 lineto
stroke
0 0 0 setrgbcolor
newpath
139000 67730 moveto
137000 65730 lineto
stroke
0 0 0 setrgbcolor
newpath
139800 68730 moveto
139000 68730 lineto
stroke
0 0 0 setrgbcolor
newpath
137000 66730 moveto
135600 66730 lineto
stroke
0 0 0 setrgbcolor
newpath
139000 68730 moveto
137000 66730 lineto
stroke
0 0 0 setrgbcolor
newpath
144300 68730 moveto
146000 68730 lineto
stroke
0 0 0 setrgbcolor
newpath
146800 69530 moveto
148200 69530 lineto
stroke
0 0 0 setrgbcolor
newpath
146000 68730 moveto
146800 69530 lineto
stroke
0 0 0 setrgbcolor
newpath
144300 67730 moveto
146000 67730 lineto
stroke
0 0 0 setrgbcolor
newpath
146800 68530 moveto
148200 68530 lineto
stroke
0 0 0 setrgbcolor
newpath
146000 67730 moveto
146800 68530 lineto
stroke
0 0 0 setrgbcolor
newpath
148200 62730 moveto
147800 62730 lineto
stroke
0 0 0 setrgbcolor
newpath
145800 60730 moveto
144300 60730 lineto
stroke
0 0 0 setrgbcolor
newpath
147800 62730 moveto
145800 60730 lineto
stroke
0 0 0 setrgbcolor
newpath
148200 61730 moveto
147800 61730 lineto
stroke
0 0 0 setrgbcolor
newpath
145800 59730 moveto
144300 59730 lineto
stroke
0 0 0 setrgbcolor
newpath
147800 61730 moveto
145800 59730 lineto
stroke
0 0 0 setrgbcolor
newpath
148200 60730 moveto
147800 60730 lineto
stroke
0 0 0 setrgbcolor
newpath
145800 58730 moveto
144300 58730 lineto
stroke
0 0 0 setrgbcolor
newpath
147800 60730 moveto
145800 58730 lineto
stroke
0 0 0 setrgbcolor
newpath
148200 59730 moveto
147800 59730 lineto
stroke
0 0 0 setrgbcolor
newpath
145800 57730 moveto
144300 57730 lineto
stroke
0 0 0 setrgbcolor
newpath
147800 59730 moveto
145800 57730 lineto
stroke
0 0 0 setrgbcolor
newpath
148200 58730 moveto
147800 58730 lineto
stroke
0 0 0 setrgbcolor
newpath
145800 56730 moveto
144300 56730 lineto
stroke
0 0 0 setrgbcolor
newpath
147800 58730 moveto
145800 56730 lineto
stroke
0 0 0 setrgbcolor
newpath
148200 57730 moveto
147800 57730 lineto
stroke
0 0 0 setrgbcolor
newpath
145800 55730 moveto
144300 55730 lineto
stroke
0 0 0 setrgbcolor
newpath
147800 57730 moveto
145800 55730 lineto
stroke
0 0 0 setrgbcolor
newpath
139800 58730 moveto
139000 58730 lineto
stroke
0 0 0 setrgbcolor
newpath
137000 56730 moveto
135600 56730 lineto
stroke
0 0 0 setrgbcolor
newpath
139000 58730 moveto
137000 56730 lineto
stroke
0 0 0 setrgbcolor
newpath
139800 59730 moveto
139000 59730 lineto
stroke
0 0 0 setrgbcolor
newpath
137000 57730 moveto
135600 57730 lineto
stroke
0 0 0 setrgbcolor
newpath
139000 59730 moveto
137000 57730 lineto
stroke
0 0 0 setrgbcolor
newpath
139800 60730 moveto
139000 60730 lineto
stroke
0 0 0 setrgbcolor
newpath
137000 58730 moveto
135600 58730 lineto
stroke
0 0 0 setrgbcolor
newpath
139000 60730 moveto
137000 58730 lineto
stroke
0 0 0 setrgbcolor
newpath
139800 63730 moveto
139000 63730 lineto
stroke
0 0 0 setrgbcolor
newpath
137000 61730 moveto
135600 61730 lineto
stroke
0 0 0 setrgbcolor
newpath
139000 63730 moveto
137000 61730 lineto
stroke
0 0 0 setrgbcolor
newpath
141800 57180 moveto
141800 55730 lineto
stroke
0 0 0 setrgbcolor
newpath
141400 71330 moveto
141400 70430 lineto
stroke
0 0 0 setrgbcolor
newpath
142200 55730 moveto
141800 55730 lineto
stroke
0 0 0 setrgbcolor
newpath
141800 55730 moveto
139800 55730 lineto
stroke
0 0 0 setrgbcolor
newpath
142700 56230 moveto
142200 55730 lineto
stroke
0 0 0 setrgbcolor
newpath
142700 64530 moveto
142700 56230 lineto
stroke
0 0 0 setrgbcolor
newpath
141900 65330 moveto
142700 64530 lineto
stroke
0 0 0 setrgbcolor
newpath
141900 69930 moveto
141900 65330 lineto
stroke
0 0 0 setrgbcolor
newpath
141400 70430 moveto
141900 69930 lineto
stroke
0 0 0 setrgbcolor
newpath
139800 56730 moveto
138700 56730 lineto
stroke
0 0 0 setrgbcolor
newpath
136200 53930 moveto
136800 53930 lineto
stroke
0 0 0 setrgbcolor
newpath
136000 54130 moveto
136200 53930 lineto
stroke
0 0 0 setrgbcolor
newpath
136000 55330 moveto
136000 54130 lineto
stroke
0 0 0 setrgbcolor
newpath
136200 55530 moveto
136000 55330 lineto
stroke
0 0 0 setrgbcolor
newpath
137500 55530 moveto
136200 55530 lineto
stroke
0 0 0 setrgbcolor
newpath
138700 56730 moveto
137500 55530 lineto
stroke
0 0 0 setrgbcolor
newpath
142950 54230 moveto
142950 53880 lineto
stroke
0 0 0 setrgbcolor
newpath
136400 53530 moveto
136400 53130 lineto
stroke
0 0 0 setrgbcolor
newpath
136800 53930 moveto
136400 53530 lineto
stroke
0 0 0 setrgbcolor
newpath
137900 53930 moveto
136800 53930 lineto
stroke
0 0 0 setrgbcolor
newpath
138200 53630 moveto
137900 53930 lineto
stroke
0 0 0 setrgbcolor
newpath
140900 53630 moveto
138200 53630 lineto
stroke
0 0 0 setrgbcolor
newpath
141000 53530 moveto
140900 53630 lineto
stroke
0 0 0 setrgbcolor
newpath
142600 53530 moveto
141000 53530 lineto
stroke
0 0 0 setrgbcolor
newpath
142950 53880 moveto
142600 53530 lineto
stroke
0 0 0 setrgbcolor
newpath
142400 71330 moveto
142400 65630 lineto
stroke
0 0 0 setrgbcolor
newpath
143300 64730 moveto
144300 64730 lineto
stroke
0 0 0 setrgbcolor
newpath
142400 65630 moveto
143300 64730 lineto
stroke
0 0 0 setrgbcolor
newpath
135350 54630 moveto
135350 53180 lineto
stroke
0 0 0 setrgbcolor
newpath
135350 53180 moveto
135400 53130 lineto
stroke
0 0 0 setrgbcolor
newpath
139800 57730 moveto
138900 57730 lineto
stroke
0 0 0 setrgbcolor
newpath
135500 54780 moveto
135350 54630 lineto
stroke
0 0 0 setrgbcolor
newpath
135500 55530 moveto
135500 54780 lineto
stroke
0 0 0 setrgbcolor
newpath
136000 56030 moveto
135500 55530 lineto
stroke
0 0 0 setrgbcolor
newpath
137200 56030 moveto
136000 56030 lineto
stroke
0 0 0 setrgbcolor
newpath
138900 57730 moveto
137200 56030 lineto
stroke
0 0 0 setrgbcolor
newpath
137400 53130 moveto
137400 51930 lineto
stroke
0 0 0 setrgbcolor
newpath
138700 52980 moveto
138700 51930 lineto
stroke
0 0 0 setrgbcolor
newpath
140300 52980 moveto
140300 51930 lineto
stroke
0 0 0 setrgbcolor
newpath
134600 60730 moveto
135600 60730 lineto
stroke
0 0 0 setrgbcolor
newpath
134600 68730 moveto
135600 68730 lineto
stroke
0 0 0 setrgbcolor
newpath
139400 72330 moveto
139400 71330 lineto
stroke
0 0 0 setrgbcolor
newpath
149400 71930 moveto
149000 72330 lineto
stroke
0 0 0 setrgbcolor
newpath
149400 67530 moveto
149400 71930 lineto
stroke
0 0 0 setrgbcolor
newpath
134800 51930 moveto
137400 51930 lineto
stroke
0 0 0 setrgbcolor
newpath
137400 51930 moveto
138700 51930 lineto
stroke
0 0 0 setrgbcolor
newpath
138700 51930 moveto
140300 51930 lineto
stroke
0 0 0 setrgbcolor
newpath
140300 51930 moveto
147000 51930 lineto
stroke
0 0 0 setrgbcolor
newpath
134600 52130 moveto
134800 51930 lineto
stroke
0 0 0 setrgbcolor
newpath
134600 72130 moveto
134600 68730 lineto
stroke
0 0 0 setrgbcolor
newpath
134600 68730 moveto
134600 60730 lineto
stroke
0 0 0 setrgbcolor
newpath
134600 60730 moveto
134600 52130 lineto
stroke
0 0 0 setrgbcolor
newpath
134800 72330 moveto
134600 72130 lineto
stroke
0 0 0 setrgbcolor
newpath
149000 72330 moveto
139400 72330 lineto
stroke
0 0 0 setrgbcolor
newpath
139400 72330 moveto
134800 72330 lineto
stroke
0 0 0 setrgbcolor
newpath
149400 55730 moveto
148200 55730 lineto
stroke
0 0 0 setrgbcolor
newpath
149400 63730 moveto
148200 63730 lineto
stroke
0 0 0 setrgbcolor
newpath
149400 67530 moveto
148200 67530 lineto
stroke
0 0 0 setrgbcolor
newpath
147500 53130 moveto
147500 52030 lineto
stroke
0 0 0 setrgbcolor
newpath
149400 51930 moveto
149400 55730 lineto
stroke
0 0 0 setrgbcolor
newpath
149400 55730 moveto
149400 63730 lineto
stroke
0 0 0 setrgbcolor
newpath
149400 63730 moveto
149400 67530 lineto
stroke
0 0 0 setrgbcolor
newpath
147600 51930 moveto
149400 51930 lineto
stroke
0 0 0 setrgbcolor
newpath
147500 52030 moveto
147600 51930 lineto
stroke
0 0 0 setrgbcolor
newpath
148200 63730 moveto
147800 63730 lineto
stroke
0 0 0 setrgbcolor
newpath
147800 63730 moveto
145800 61730 lineto
stroke
0 0 0 setrgbcolor
newpath
145800 61730 moveto
144300 61730 lineto
stroke
0 0 0 setrgbcolor
newpath
139800 62730 moveto
139000 62730 lineto
stroke
0 0 0 setrgbcolor
newpath
139000 62730 moveto
137000 60730 lineto
stroke
0 0 0 setrgbcolor
newpath
137000 60730 moveto
135600 60730 lineto
stroke
0 0 0 setrgbcolor
newpath
141650 54230 moveto
140350 54230 lineto
stroke
0 0 0 setrgbcolor
newpath
140350 54230 moveto
140300 54280 lineto
stroke
0 0 0 setrgbcolor
newpath
138700 54280 moveto
138150 54280 lineto
stroke
0 0 0 setrgbcolor
newpath
137800 54630 moveto
136650 54630 lineto
stroke
0 0 0 setrgbcolor
newpath
138150 54280 moveto
137800 54630 lineto
stroke
0 0 0 setrgbcolor
newpath
148500 53130 moveto
148500 53830 lineto
stroke
0 0 0 setrgbcolor
newpath
146500 54530 moveto
146000 55030 lineto
stroke
0 0 0 setrgbcolor
newpath
147800 54530 moveto
146500 54530 lineto
stroke
0 0 0 setrgbcolor
newpath
148500 53830 moveto
147800 54530 lineto
stroke
0 0 0 setrgbcolor
newpath
141800 58480 moveto
140800 58480 lineto
stroke
0 0 0 setrgbcolor
newpath
144300 62730 moveto
143600 62730 lineto
stroke
0 0 0 setrgbcolor
newpath
143200 62330 moveto
143200 55030 lineto
stroke
0 0 0 setrgbcolor
newpath
143600 62730 moveto
143200 62330 lineto
stroke
0 0 0 setrgbcolor
newpath
140400 70230 moveto
139300 70230 lineto
stroke
0 0 0 setrgbcolor
newpath
136800 67730 moveto
135600 67730 lineto
stroke
0 0 0 setrgbcolor
newpath
139300 70230 moveto
136800 67730 lineto
stroke
0 0 0 setrgbcolor
newpath
140800 61530 moveto
140800 63830 lineto
stroke
0 0 0 setrgbcolor
newpath
140400 70230 moveto
140400 71330 lineto
stroke
0 0 0 setrgbcolor
newpath
141100 69530 moveto
140400 70230 lineto
stroke
0 0 0 setrgbcolor
newpath
141100 64130 moveto
141100 69530 lineto
stroke
0 0 0 setrgbcolor
newpath
140800 63830 moveto
141100 64130 lineto
stroke
0 0 0 setrgbcolor
newpath
148200 56730 moveto
147700 56730 lineto
stroke
0 0 0 setrgbcolor
newpath
147700 56730 moveto
146000 55030 lineto
stroke
0 0 0 setrgbcolor
newpath
146000 55030 moveto
143200 55030 lineto
stroke
0 0 0 setrgbcolor
newpath
140600 61730 moveto
139800 61730 lineto
stroke
0 0 0 setrgbcolor
newpath
140800 61530 moveto
140600 61730 lineto
stroke
0 0 0 setrgbcolor
newpath
140800 56530 moveto
140800 58480 lineto
stroke
0 0 0 setrgbcolor
newpath
140800 58480 moveto
140800 61530 lineto
stroke
0 0 0 setrgbcolor
newpath
143200 55030 moveto
139100 55030 lineto
stroke
0 0 0 setrgbcolor
newpath
139100 55030 moveto
138800 55330 lineto
stroke
0 0 0 setrgbcolor
newpath
138800 55330 moveto
138800 55930 lineto
stroke
0 0 0 setrgbcolor
newpath
138800 55930 moveto
139100 56230 lineto
stroke
0 0 0 setrgbcolor
newpath
139100 56230 moveto
140500 56230 lineto
stroke
0 0 0 setrgbcolor
newpath
140500 56230 moveto
140800 56530 lineto
stroke
0 0 0 setrgbcolor
newpath
148200 64730 moveto
147800 64730 lineto
stroke
0 0 0 setrgbcolor
newpath
145800 62730 moveto
144300 62730 lineto
stroke
0 0 0 setrgbcolor
newpath
147800 64730 moveto
145800 62730 lineto
stroke
0 0 0 setrgbcolor
newpath
144300 63730 moveto
144300 62730 lineto
stroke
0 0 0 setrgbcolor
newpath
148200 66530 moveto
148200 64730 lineto
stroke
0 0 0 setrgbcolor
newpath
139800 61730 moveto
139000 61730 lineto
stroke
0 0 0 setrgbcolor
newpath
137000 59730 moveto
135600 59730 lineto
stroke
0 0 0 setrgbcolor
newpath
139000 61730 moveto
137000 59730 lineto
stroke
showpage
grestore
%%EOF
